{
	"format_version": "1.12.0",
	"minecraft:geometry": [
		{
			"description": {
				"identifier": "geometry.unknown",
				"texture_width": 256,
				"texture_height": 256,
				"visible_bounds_width": 4,
				"visible_bounds_height": 3.5,
				"visible_bounds_offset": [0, 1.25, 0]
			},
			"bones": [
				{
					"name": "kart",
					"pivot": [0, 3.9, 0]
				},
				{
					"name": "bb_main",
					"parent": "kart",
					"pivot": [0, 4.9, 0],
					"cubes": [
						{"origin": [-3, 7.9, -3], "size": [6, 6, 6], "uv": [0, 34]},
						{"origin": [-2, 5.9, -7], "size": [4, 4, 4], "uv": [44, 42]},
						{"origin": [-3, 7.9, -14], "size": [6, 7, 7], "uv": [0, 20]},
						{"origin": [-2, 8.9, -17], "size": [4, 3, 4], "uv": [44, 26]},
						{"origin": [-2, 5.9, 3], "size": [4, 4, 4], "uv": [40, 18]},
						{"origin": [-3, 7.9, 7], "size": [6, 6, 6], "uv": [26, 27]},
						{"origin": [2, 7.3, -5.5], "size": [1, 2, 1], "pivot": [2, 7.3, -4.5], "rotation": [0, 0, 90], "uv": [12, 55]},
						{"origin": [2, 7.3, 4.5], "size": [1, 2, 1], "pivot": [2, 7.3, 5.5], "rotation": [0, 0, 90], "uv": [55, 8]},
						{"origin": [-3, 7.3, 4.5], "size": [1, 2, 1], "pivot": [-2, 7.3, 5.5], "rotation": [0, 0, -90], "uv": [8, 55]},
						{"origin": [-3, 7.3, -5.5], "size": [1, 2, 1], "pivot": [-2, 7.3, -4.5], "rotation": [0, 0, -90], "uv": [0, 46]},
						{"origin": [-3, 9.3, -6.5], "size": [1, 2, 3], "pivot": [-2, 7.3, -4.5], "rotation": [0, -30, -90], "uv": [42, 50]},
						{"origin": [-3, 2.5, 3.5], "size": [1, 2, 3], "pivot": [-2, 6.5, 5.5], "rotation": [0, -30, 90], "uv": [50, 33]},
						{"origin": [7, 2.5, 3.5], "size": [1, 2, 3], "pivot": [8, 6.5, 5.5], "rotation": [0, -30, 90], "uv": [30, 50]},
						{"origin": [7, 9.3, -6.5], "size": [1, 2, 3], "pivot": [8, 7.3, -4.5], "rotation": [0, -30, -90], "uv": [22, 50]},
						{"origin": [3, 8, -0.5], "size": [3, 1, 1], "uv": [55, 0]},
						{"origin": [-6, 8, -0.5], "size": [3, 1, 1], "uv": [0, 55]},
						{"origin": [-0.5, 4.9, -8], "size": [1, 2, 2], "pivot": [-0.5, 4.9, -7], "rotation": [-27.5, 0, 0], "uv": [0, 34]},
						{"origin": [-1, 3.9, -8], "size": [2, 2, 2], "uv": [0, 51]},
						{"origin": [0, 4.4, -7.5], "size": [5, 1, 1], "pivot": [0, 4.4, -6.5], "rotation": [0, 0, 20], "uv": [25, 48]},
						{"origin": [-5, 4.4, -7.5], "size": [5, 1, 1], "pivot": [0, 4.4, -6.5], "rotation": [0, 0, -20], "uv": [48, 16]},
						{"origin": [-0.5, 4.9, 6], "size": [1, 2, 2], "pivot": [-0.5, 4.9, 7], "rotation": [27.5, 0, 0], "uv": [26, 27]},
						{"origin": [-1, 3.9, 6], "size": [2, 2, 2], "uv": [50, 50]},
						{"origin": [0, 4.4, 6.5], "size": [5, 1, 1], "pivot": [0, 4.4, 6.5], "rotation": [0, 0, 20], "uv": [48, 14]},
						{"origin": [-5, 4.4, 6.5], "size": [5, 1, 1], "pivot": [0, 4.4, 6.5], "rotation": [0, 0, -20], "uv": [48, 12]},
						{"origin": [-1.85, 9.5, -17.01], "size": [1, 2, 0], "uv": [0, 10]},
						{"origin": [-0.5, 9.5, -17.01], "size": [1, 2, 0], "uv": [7, 0]},
						{"origin": [0.85, 9.5, -17.01], "size": [1, 2, 0], "uv": [0, 0]}
					]
				},
				{
					"name": "wheels",
					"parent": "bb_main",
					"pivot": [0, 0, 0]
				},
				{
					"name": "wheels_left",
					"parent": "wheels",
					"pivot": [0, 0, 0]
				},
				{
					"name": "back_left",
					"parent": "wheels_left",
					"pivot": [5.4167, 3.75, 6.48611],
					"cubes": [
						{"origin": [5.225, 0.75, 3.5], "size": [0, 6, 6], "uv": [10, 75]},
						{"origin": [4.25, 0, 5], "size": [2, 1, 3], "uv": [22, 82]},
						{"origin": [4.25, 1.41421, 2.58579], "size": [2, 1, 3], "pivot": [5.25, 1.41421, 3.58579], "rotation": [-45, 0, 0], "uv": [22, 82]},
						{"origin": [4.25, 4.12132, 1.87868], "size": [2, 1, 3], "pivot": [5.25, 4.12132, 2.87868], "rotation": [-90, 0, 0], "uv": [22, 82]},
						{"origin": [4.25, 6.53553, 3.29289], "size": [2, 1, 3], "pivot": [5.25, 6.53553, 4.29289], "rotation": [-135, 0, 0], "uv": [22, 82]},
						{"origin": [4.25, 7.24264, 6], "size": [2, 1, 3], "pivot": [5.25, 7.24264, 7], "rotation": [180, 0, 0], "uv": [22, 82]},
						{"origin": [4.25, 5.82843, 8.41421], "size": [2, 1, 3], "pivot": [5.25, 5.82843, 9.41421], "rotation": [135, 0, 0], "uv": [22, 82]},
						{"origin": [4.25, 3.12132, 9.12132], "size": [2, 1, 3], "pivot": [5.25, 3.12132, 10.12132], "rotation": [90, 0, 0], "uv": [22, 82]},
						{"origin": [4.25, 0.70711, 7.70711], "size": [2, 1, 3], "pivot": [5.25, 0.70711, 8.70711], "rotation": [45, 0, 0], "uv": [22, 82]}
					]
				},
				{
					"name": "front_left",
					"parent": "wheels_left",
					"pivot": [3.6667, 3.75, -6.51389],
					"cubes": [
						{"origin": [5.225, 0.75, -9.5], "size": [0, 6, 6], "uv": [10, 75]},
						{"origin": [4.25, 0, -8], "size": [2, 1, 3], "uv": [22, 82]},
						{"origin": [4.25, 1.41421, -10.41421], "size": [2, 1, 3], "pivot": [5.25, 1.41421, -9.41421], "rotation": [-45, 0, 0], "uv": [22, 82]},
						{"origin": [4.25, 4.12132, -11.12132], "size": [2, 1, 3], "pivot": [5.25, 4.12132, -10.12132], "rotation": [-90, 0, 0], "uv": [22, 82]},
						{"origin": [4.25, 6.53553, -9.70711], "size": [2, 1, 3], "pivot": [5.25, 6.53553, -8.70711], "rotation": [-135, 0, 0], "uv": [22, 82]},
						{"origin": [4.25, 7.24264, -7], "size": [2, 1, 3], "pivot": [5.25, 7.24264, -6], "rotation": [180, 0, 0], "uv": [22, 82]},
						{"origin": [4.25, 5.82843, -4.58579], "size": [2, 1, 3], "pivot": [5.25, 5.82843, -3.58579], "rotation": [135, 0, 0], "uv": [22, 82]},
						{"origin": [4.25, 3.12132, -3.87868], "size": [2, 1, 3], "pivot": [5.25, 3.12132, -2.87868], "rotation": [90, 0, 0], "uv": [22, 82]},
						{"origin": [4.25, 0.70711, -5.29289], "size": [2, 1, 3], "pivot": [5.25, 0.70711, -4.29289], "rotation": [45, 0, 0], "uv": [22, 82]}
					]
				},
				{
					"name": "wheels_right",
					"parent": "wheels",
					"pivot": [0, 0, 0]
				},
				{
					"name": "back_right",
					"parent": "wheels_right",
					"pivot": [-5.4167, 3.75, 6.58611],
					"cubes": [
						{"origin": [-5.225, 0.75, 3.5], "size": [0, 6, 6], "uv": [10, 75], "mirror": true},
						{"origin": [-6.25, 0, 5], "size": [2, 1, 3], "uv": [22, 82], "mirror": true},
						{"origin": [-6.25, 1.41421, 2.58579], "size": [2, 1, 3], "pivot": [-5.25, 1.41421, 3.58579], "rotation": [-45, 0, 0], "uv": [22, 82], "mirror": true},
						{"origin": [-6.25, 4.12132, 1.87868], "size": [2, 1, 3], "pivot": [-5.25, 4.12132, 2.87868], "rotation": [-90, 0, 0], "uv": [22, 82], "mirror": true},
						{"origin": [-6.25, 6.53553, 3.29289], "size": [2, 1, 3], "pivot": [-5.25, 6.53553, 4.29289], "rotation": [-135, 0, 0], "uv": [22, 82], "mirror": true},
						{"origin": [-6.25, 7.24264, 6], "size": [2, 1, 3], "pivot": [-5.25, 7.24264, 7], "rotation": [180, 0, 0], "uv": [22, 82], "mirror": true},
						{"origin": [-6.25, 5.82843, 8.41421], "size": [2, 1, 3], "pivot": [-5.25, 5.82843, 9.41421], "rotation": [135, 0, 0], "uv": [22, 82], "mirror": true},
						{"origin": [-6.25, 3.12132, 9.12132], "size": [2, 1, 3], "pivot": [-5.25, 3.12132, 10.12132], "rotation": [90, 0, 0], "uv": [22, 82], "mirror": true},
						{"origin": [-6.25, 0.70711, 7.70711], "size": [2, 1, 3], "pivot": [-5.25, 0.70711, 8.70711], "rotation": [45, 0, 0], "uv": [22, 82], "mirror": true}
					]
				},
				{
					"name": "front_right",
					"parent": "wheels_right",
					"pivot": [-5.41667, 3.75, -6.51389],
					"cubes": [
						{"origin": [-5.225, 0.75, -9.5], "size": [0, 6, 6], "uv": [10, 75], "mirror": true},
						{"origin": [-6.25, 0, -8], "size": [2, 1, 3], "uv": [22, 82], "mirror": true},
						{"origin": [-6.25, 1.41421, -10.41421], "size": [2, 1, 3], "pivot": [-5.25, 1.41421, -9.41421], "rotation": [-45, 0, 0], "uv": [22, 82], "mirror": true},
						{"origin": [-6.25, 4.12132, -11.12132], "size": [2, 1, 3], "pivot": [-5.25, 4.12132, -10.12132], "rotation": [-90, 0, 0], "uv": [22, 82], "mirror": true},
						{"origin": [-6.25, 6.53553, -9.70711], "size": [2, 1, 3], "pivot": [-5.25, 6.53553, -8.70711], "rotation": [-135, 0, 0], "uv": [22, 82], "mirror": true},
						{"origin": [-6.25, 7.24264, -7], "size": [2, 1, 3], "pivot": [-5.25, 7.24264, -6], "rotation": [180, 0, 0], "uv": [22, 82], "mirror": true},
						{"origin": [-6.25, 5.82843, -4.58579], "size": [2, 1, 3], "pivot": [-5.25, 5.82843, -3.58579], "rotation": [135, 0, 0], "uv": [22, 82], "mirror": true},
						{"origin": [-6.25, 3.12132, -3.87868], "size": [2, 1, 3], "pivot": [-5.25, 3.12132, -2.87868], "rotation": [90, 0, 0], "uv": [22, 82], "mirror": true},
						{"origin": [-6.25, 0.70711, -5.29289], "size": [2, 1, 3], "pivot": [-5.25, 0.70711, -4.29289], "rotation": [45, 0, 0], "uv": [22, 82], "mirror": true}
					]
				},
				{
					"name": "propeller",
					"parent": "bb_main",
					"pivot": [0.0125, 11.56137, 13.9646],
					"cubes": [
						{"origin": [-1, 10.6, 13.4], "size": [2, 2, 1], "pivot": [0, 13.6, 13.4], "rotation": [10, 0, 0], "uv": [97, 64]},
						{"origin": [-0.5, 11.35, 11.65], "size": [1, 0, 2], "pivot": [0.5, 14.35, 12.65], "rotation": [10, 0, 0], "uv": [36, 55]},
						{"origin": [-1, 10.89558, 12.17094], "size": [1, 0, 2], "pivot": [0, 10.89558, 13.17094], "rotation": [0, -10, 90], "uv": [36, 55]},
						{"origin": [0.95, 9.675, 13.8], "size": [3, 4, 0], "pivot": [1.95, 13.675, 13.8], "rotation": [10.80524, -22.13991, -4.11405], "uv": [98, 51]},
						{"origin": [-3.95, 9.675, 13.8], "size": [3, 4, 0], "pivot": [-1.95, 13.675, 13.8], "rotation": [10.80524, 22.13991, 4.11405], "uv": [98, 51], "mirror": true},
						{"origin": [0.05, 9.65, 13.9], "size": [3, 4, 0], "pivot": [2.05, 13.65, 13.9], "rotation": [0, 12.5, 90], "uv": [98, 51], "mirror": true},
						{"origin": [-3.95, 5.725, 14.6], "size": [3, 4, 0], "pivot": [-1.95, 9.725, 14.6], "rotation": [0, 12.5, -90], "uv": [98, 51], "mirror": true},
						{"origin": [-3, 8.6, 13.4], "size": [6, 6, 0], "pivot": [0, 13.6, 13.4], "rotation": [10, 0, 0], "uv": [104, 55]}
					]
				},
				{
					"name": "seat",
					"parent": "kart",
					"pivot": [0, 14.9, 0],
					"cubes": [
						{"origin": [-3, 13.9, -4], "size": [6, 1, 8], "uv": [20, 18]},
						{"origin": [-2.9995, 13.69, -4.95], "size": [5.999, 1, 2], "pivot": [-0.0005, 12.7, -3.9], "rotation": [27.5, 0, 0], "uv": [12, 46]},
						{"origin": [-2.9995, 14.325, 3.8], "size": [5.999, 1, 2], "pivot": [1.9995, 14.3, 4.8], "rotation": [27.5, 0, 0], "uv": [42, 39]}
					]
				},
				{
					"name": "engine",
					"parent": "kart",
					"pivot": [0, 7.9, 13]
				},
				{
					"name": "turbo_left",
					"parent": "engine",
					"pivot": [0, 3.9, 0],
					"cubes": [
						{"origin": [0.5, 6.9, 11], "size": [2, 2, 3], "pivot": [1.5, 6.9, 13], "rotation": [-15, 0, 0], "uv": [0, 10]},
						{"origin": [0.4999, 7.6, 12.4], "size": [2, 2, 1], "uv": [55, 4]},
						{"origin": [1, 7.3, 14.15], "size": [1, 1, 0], "pivot": [1, 7.3, 13.2], "rotation": [-15, 0, 0], "uv": [7, 2]}
					]
				},
				{
					"name": "turbo_right",
					"parent": "engine",
					"pivot": [-3, 3.9, 0],
					"cubes": [
						{"origin": [-2.5001, 7.6, 12.4], "size": [2, 2, 1], "uv": [27, 50]},
						{"origin": [-2.5, 6.9, 11], "size": [2, 2, 3], "pivot": [-1.5, 6.9, 13], "rotation": [-15, 0, 0], "uv": [0, 0]},
						{"origin": [-2, 7.3, 14.15], "size": [1, 1, 0], "pivot": [-2, 7.3, 13.2], "rotation": [-15, 0, 0], "uv": [0, 2]}
					]
				},
				{
					"name": "handlebar",
					"parent": "kart",
					"pivot": [0, 16.9, -6],
					"rotation": [-17.5, 0, 0],
					"cubes": [
						{"origin": [-1, 13.9, -8], "size": [2, 3.3, 2], "pivot": [0, 13.9, -7], "rotation": [-17.5, 0, 0], "uv": [14, 49]},
						{"origin": [0.8, 15.9, -6.7], "size": [2, 1, 1], "uv": [0, 38]},
						{"origin": [2.34652, 15.74107, -6.7005], "size": [3, 1, 1.001], "pivot": [2.35731, 16.25, -5.7005], "rotation": [0, 0, -67.5], "uv": [49, 54]},
						{"origin": [3.05, 18.19, -6.7], "size": [3, 1, 1], "uv": [54, 38]},
						{"origin": [-6.05, 18.19, -6.7], "size": [3, 1, 1], "uv": [15, 54]},
						{"origin": [-2.8, 15.9, -6.7], "size": [2, 1, 1], "uv": [26, 31]},
						{"origin": [-5.34652, 15.74107, -6.7005], "size": [3, 1, 1.001], "pivot": [-2.35731, 16.25, -5.7005], "rotation": [0, 0, 67.5], "uv": [18, 34]},
						{"origin": [-0.5, 13.9, -8], "size": [1, 2, 1], "pivot": [-0.5, 13.9, -7], "rotation": [17.5, 0, 0], "uv": [44, 27]},
						{"origin": [-0.5, 16.65, -10.1], "size": [1, 1, 1], "pivot": [-0.5, 16.9, -6], "rotation": [17.5, 0, 0], "uv": [3, 25]},
						{"origin": [-1.5, 15.65, -10], "size": [3, 3, 0], "pivot": [-0.5, 16.9, -6], "rotation": [17.5, 0, 0], "uv": [42, 42]},
						{"origin": [-3, 17.68951, -6.64999], "size": [6, 1, 1], "pivot": [0, 16.9, -6], "rotation": [2.5, 0, 0], "uv": [24, 46]},
						{"origin": [-0.5, 15.3, -9.8], "size": [1, 1, 2], "pivot": [-0.5, 15.3, -8.8], "rotation": [-27.5, 0, 0], "uv": [24, 40]}
					]
				},
				{
					"name": "glider",
					"parent": "kart",
					"pivot": [0, 12, 8]
				},
				{
					"name": "stem",
					"parent": "glider",
					"pivot": [0, 13.5, 10],
					"cubes": [
						{"origin": [-1, 13.5, 9], "size": [2, 3, 2], "pivot": [0, 13.5, 10], "rotation": [-10, 0, 0], "uv": [19, 20]}
					]
				},
				{
					"name": "flower",
					"parent": "glider",
					"pivot": [0, 12, 8],
					"cubes": [
						{"origin": [-0.5, 15.9, 10], "size": [1, 3, 1], "pivot": [-0.5, 15.9, 11], "rotation": [-10, 0, 0], "uv": [40, 18]},
						{"origin": [-0.5, 18.9, 10.5], "size": [1, 6, 1], "pivot": [-0.5, 18.9, 11.5], "rotation": [-2, 0, 0], "uv": [38, 51]},
						{"origin": [-0.5, 24.8, 10.7], "size": [1, 5, 1], "pivot": [-0.5, 24.8, 11.7], "rotation": [1, 0, 0], "uv": [0, 19]},
						{"origin": [-2, 28.9, 9], "size": [4, 1, 4], "uv": [0, 46]},
						{"origin": [-5, 29.4, -2], "size": [10, 0, 15], "pivot": [0, 27.4, 10], "rotation": [-15, 0, 0], "uv": [91, 7]},
						{"origin": [-5, 29.4, 9], "size": [10, 0, 15], "pivot": [0, 27.4, 12], "rotation": [15, 0, 0], "uv": [91, 7]},
						{"origin": [-13, 29.4, 6], "size": [15, 0, 10], "pivot": [-1, 27.4, 11], "rotation": [0, 0, 15], "uv": [67, 13]},
						{"origin": [-2, 29.4, 6], "size": [15, 0, 10], "pivot": [1, 27.4, 11], "rotation": [0, 0, -15], "uv": [67, 13]},
						{"origin": [-5, 29.4, -2], "size": [10, 0, 15], "pivot": [0, 27.4, 10], "rotation": [-15, 47.5, 0], "uv": [91, 7]},
						{"origin": [-13, 29.4, 6], "size": [15, 0, 10], "pivot": [-1, 27.4, 11], "rotation": [15.77241, 45.41054, 21.63402], "uv": [67, 13]},
						{"origin": [-5, 29.4, 9], "size": [10, 0, 15], "pivot": [0, 27.4, 12], "rotation": [15, 47.5, 0], "uv": [91, 7]},
						{"origin": [-2, 29.4, 6], "size": [15, 0, 10], "pivot": [1, 27.4, 11], "rotation": [-15.77241, 45.41054, -21.63402], "uv": [67, 13]},
						{"origin": [-3, 29.5, 8], "size": [6, 1, 6], "uv": [24, 39]}
					]
				},
				{
					"name": "drifts",
					"pivot": [0, 0, 0]
				},
				{
					"name": "drift_left",
					"parent": "drifts",
					"pivot": [-3.75, 0, -20]
				},
				{
					"name": "drift_b_l",
					"parent": "drift_left",
					"pivot": [9.78558, 3, -10.71791],
					"rotation": [0, 102.5, 0]
				},
				{
					"name": "b_1",
					"parent": "drift_b_l",
					"pivot": [-7.92689, 1, -19.12237],
					"cubes": [
						{
							"origin": [-6.60718, 0, -28.17168],
							"size": [8, 8, 0],
							"pivot": [9.78558, 3, -10.71791],
							"rotation": [0, 40, 0],
							"uv": {
								"north": {"uv": [248, 208.5], "uv_size": [8, 8]},
								"east": {"uv": [256, 0], "uv_size": [0, 6]},
								"south": {"uv": [248, 0], "uv_size": [8, 6]},
								"west": {"uv": [256, 0], "uv_size": [0, 6]},
								"up": {"uv": [256, 6], "uv_size": [-8, -6]},
								"down": {"uv": [256, 0], "uv_size": [-8, 0]}
							}
						}
					]
				},
				{
					"name": "b_2",
					"parent": "drift_b_l",
					"pivot": [-7.92689, 1, -19.12237],
					"cubes": [
						{
							"origin": [-6.60718, 0, -28.17168],
							"size": [8, 8, 0],
							"pivot": [9.78558, 3, -10.71791],
							"rotation": [0, 40, 0],
							"uv": {
								"north": {"uv": [248, 217], "uv_size": [8, 8]},
								"east": {"uv": [256, 0], "uv_size": [0, 6]},
								"south": {"uv": [248, 0], "uv_size": [8, 6]},
								"west": {"uv": [256, 0], "uv_size": [0, 6]},
								"up": {"uv": [256, 6], "uv_size": [-8, -6]},
								"down": {"uv": [256, 0], "uv_size": [-8, 0]}
							}
						}
					]
				},
				{
					"name": "drift_o_l",
					"parent": "drift_left",
					"pivot": [5.78558, 3, 9.28209],
					"rotation": [0, 102.5, 0]
				},
				{
					"name": "o_1",
					"parent": "drift_o_l",
					"pivot": [5.73327, 1, 10.11161],
					"cubes": [
						{
							"origin": [8.05299, 0, 0.06229],
							"size": [8, 8, 0],
							"pivot": [24.44574, 3, 17.51607],
							"rotation": [0, 40, 0],
							"uv": {
								"north": {"uv": [248, 224], "uv_size": [8, 8]},
								"east": {"uv": [256, 0], "uv_size": [0, 6]},
								"south": {"uv": [248, 0], "uv_size": [8, 6]},
								"west": {"uv": [256, 0], "uv_size": [0, 6]},
								"up": {"uv": [256, 6], "uv_size": [-8, -6]},
								"down": {"uv": [256, 0], "uv_size": [-8, 0]}
							}
						}
					]
				},
				{
					"name": "o_2",
					"parent": "drift_o_l",
					"pivot": [5.73327, 1, 10.11161],
					"cubes": [
						{
							"origin": [8.05299, 0, 0.06229],
							"size": [8, 8, 0],
							"pivot": [24.44574, 3, 17.51607],
							"rotation": [0, 40, 0],
							"uv": {
								"north": {"uv": [248, 232], "uv_size": [8, 8]},
								"east": {"uv": [256, 0], "uv_size": [0, 6]},
								"south": {"uv": [248, 0], "uv_size": [8, 6]},
								"west": {"uv": [256, 0], "uv_size": [0, 6]},
								"up": {"uv": [256, 6], "uv_size": [-8, -6]},
								"down": {"uv": [256, 0], "uv_size": [-8, 0]}
							}
						}
					]
				},
				{
					"name": "drift_v_l",
					"parent": "drift_left",
					"pivot": [9.78558, 3, -10.71791],
					"rotation": [0, 102.5, 0]
				},
				{
					"name": "v_1",
					"parent": "drift_v_l",
					"pivot": [-7.92689, 1, -18.12237],
					"cubes": [
						{
							"origin": [-6.60718, 0, -28.17168],
							"size": [8, 8, 0],
							"pivot": [9.78558, 3, -10.71791],
							"rotation": [0, 40, 0],
							"uv": {
								"north": {"uv": [248, 240], "uv_size": [8, 8]},
								"east": {"uv": [256, 0], "uv_size": [0, 6]},
								"south": {"uv": [248, 0], "uv_size": [8, 6]},
								"west": {"uv": [256, 0], "uv_size": [0, 6]},
								"up": {"uv": [256, 6], "uv_size": [-8, -6]},
								"down": {"uv": [256, 0], "uv_size": [-8, 0]}
							}
						}
					]
				},
				{
					"name": "v_2",
					"parent": "drift_v_l",
					"pivot": [-7.9269, 1, -18.1224],
					"cubes": [
						{
							"origin": [-6.60718, 0, -28.17168],
							"size": [8, 8, 0],
							"pivot": [9.78558, 3, -10.71791],
							"rotation": [0, 40, 0],
							"uv": {
								"north": {"uv": [248, 248], "uv_size": [8, 8]},
								"east": {"uv": [256, 0], "uv_size": [0, 6]},
								"south": {"uv": [248, 0], "uv_size": [8, 6]},
								"west": {"uv": [256, 0], "uv_size": [0, 6]},
								"up": {"uv": [256, 6], "uv_size": [-8, -6]},
								"down": {"uv": [256, 0], "uv_size": [-8, 0]}
							}
						}
					]
				},
				{
					"name": "drift_right",
					"parent": "drifts",
					"pivot": [4.25, 0, -20]
				},
				{
					"name": "drift_b_l2",
					"parent": "drift_right",
					"pivot": [-9.28558, 3, -10.71791],
					"rotation": [0, -102.5, 0]
				},
				{
					"name": "b_3",
					"parent": "drift_b_l2",
					"pivot": [8.42689, 1, -19.12237],
					"cubes": [
						{
							"origin": [-0.89282, 0, -28.17168],
							"size": [8, 8, 0],
							"pivot": [-9.28558, 3, -10.71791],
							"rotation": [0, -40, 0],
							"uv": {
								"north": {"uv": [256, 208.5], "uv_size": [-8, 8]},
								"east": {"uv": [256, 0], "uv_size": [0, 6]},
								"south": {"uv": [256, 0], "uv_size": [-8, 6]},
								"west": {"uv": [256, 0], "uv_size": [0, 6]},
								"up": {"uv": [248, 6], "uv_size": [8, -6]},
								"down": {"uv": [248, 0], "uv_size": [8, 0]}
							}
						}
					]
				},
				{
					"name": "b_4",
					"parent": "drift_b_l2",
					"pivot": [8.42689, 1, -19.12237],
					"cubes": [
						{
							"origin": [-0.89282, 0, -28.17168],
							"size": [8, 8, 0],
							"pivot": [-9.28558, 3, -10.71791],
							"rotation": [0, -40, 0],
							"uv": {
								"north": {"uv": [256, 217], "uv_size": [-8, 8]},
								"east": {"uv": [256, 0], "uv_size": [0, 6]},
								"south": {"uv": [256, 0], "uv_size": [-8, 6]},
								"west": {"uv": [256, 0], "uv_size": [0, 6]},
								"up": {"uv": [248, 6], "uv_size": [8, -6]},
								"down": {"uv": [248, 0], "uv_size": [8, 0]}
							}
						}
					]
				},
				{
					"name": "drift_o_l2",
					"parent": "drift_right",
					"pivot": [-9.28558, 3, -10.71791],
					"rotation": [0, -102.5, 0]
				},
				{
					"name": "o_3",
					"parent": "drift_o_l2",
					"pivot": [7.825, 1, -19.12237],
					"cubes": [
						{
							"origin": [-0.89282, 0, -28.17168],
							"size": [8, 8, 0],
							"pivot": [-9.28558, 3, -10.71791],
							"rotation": [0, -40, 0],
							"uv": {
								"north": {"uv": [256, 224], "uv_size": [-8, 8]},
								"east": {"uv": [256, 0], "uv_size": [0, 6]},
								"south": {"uv": [256, 0], "uv_size": [-8, 6]},
								"west": {"uv": [256, 0], "uv_size": [0, 6]},
								"up": {"uv": [248, 6], "uv_size": [8, -6]},
								"down": {"uv": [248, 0], "uv_size": [8, 0]}
							}
						}
					]
				},
				{
					"name": "o_4",
					"parent": "drift_o_l2",
					"pivot": [7.825, 1, -19.12237],
					"cubes": [
						{
							"origin": [-0.89282, 0, -28.17168],
							"size": [8, 8, 0],
							"pivot": [-9.28558, 3, -10.71791],
							"rotation": [0, -40, 0],
							"uv": {
								"north": {"uv": [256, 232], "uv_size": [-8, 8]},
								"east": {"uv": [256, 0], "uv_size": [0, 6]},
								"south": {"uv": [256, 0], "uv_size": [-8, 6]},
								"west": {"uv": [256, 0], "uv_size": [0, 6]},
								"up": {"uv": [248, 6], "uv_size": [8, -6]},
								"down": {"uv": [248, 0], "uv_size": [8, 0]}
							}
						}
					]
				},
				{
					"name": "drift_v_l2",
					"parent": "drift_right",
					"pivot": [-9.28558, 3, -10.71791],
					"rotation": [0, -102.5, 0]
				},
				{
					"name": "v_3",
					"parent": "drift_v_l2",
					"pivot": [8.82498, 1, -18.61838],
					"cubes": [
						{
							"origin": [-0.89282, 0, -28.17168],
							"size": [8, 8, 0],
							"pivot": [-9.28558, 3, -10.71791],
							"rotation": [0, -40, 0],
							"uv": {
								"north": {"uv": [256, 248], "uv_size": [-8, 8]},
								"east": {"uv": [256, 0], "uv_size": [0, 6]},
								"south": {"uv": [254, 8], "uv_size": [-8, 6]},
								"west": {"uv": [256, 0], "uv_size": [0, 6]},
								"up": {"uv": [248, 6], "uv_size": [8, -6]},
								"down": {"uv": [248, 0], "uv_size": [8, 0]}
							}
						}
					]
				},
				{
					"name": "v_4",
					"parent": "drift_v_l2",
					"pivot": [8.825, 1, -18.6184],
					"cubes": [
						{"origin": [-0.89282, 0, -28.17168], "size": [8, 8, 0], "pivot": [-9.28558, 3, -10.71791], "rotation": [0, -40, 0], "uv": [240, 248]}
					]
				}
			]
		}
	]
}