{
	"format_version": "1.12.0",
	"minecraft:geometry": [
		{
			"description": {
				"identifier": "geometry.unknown",
				"texture_width": 256,
				"texture_height": 256,
				"visible_bounds_width": 6,
				"visible_bounds_height": 3.5,
				"visible_bounds_offset": [0, 1.25, 0]
			},
			"bones": [
				{
					"name": "kart",
					"pivot": [0, 0, 0],
					"cubes": [
						{
							"origin": [-3, 11.4, -18.6],
							"size": [6, 5.7, 3],
							"pivot": [-0.15, 15, -17.4],
							"rotation": [-20, 0, 0],
							"uv": {
								"north": {"uv": [32, 10], "uv_size": [5, 5]},
								"east": {"uv": [29, 47], "uv_size": [2.5, 5]},
								"south": {"uv": [32, 15], "uv_size": [5, 5]},
								"west": {"uv": [7, 58], "uv_size": [2.5, 5]},
								"up": {"uv": [37, 58], "uv_size": [5, 2.5]},
								"down": {"uv": [59, 11.5], "uv_size": [5, -2.5]}
							}
						},
						{
							"origin": [-2.4, 9.97722, -14.69105],
							"size": [4.5, 5.7, 2.1],
							"pivot": [-0.15, 13.72722, -14.99105],
							"rotation": [9, 0, 0],
							"uv": {
								"north": {"uv": [36, 24], "uv_size": [4, 5]},
								"east": {"uv": [35, 5], "uv_size": [2, 5]},
								"south": {"uv": [10, 38], "uv_size": [4, 5]},
								"west": {"uv": [43, 60], "uv_size": [2, 5]},
								"up": {"uv": [62, 49], "uv_size": [4, 2]},
								"down": {"uv": [62, 53], "uv_size": [4, -2]}
							}
						},
						{
							"origin": [-1.2, 9.87545, -15.09008],
							"size": [2.4, 2.4, 1.2],
							"pivot": [-0.15, 10.92545, -14.64008],
							"rotation": [-15, 0, 0],
							"uv": {
								"north": {"uv": [13, 73], "uv_size": [2, 2]},
								"east": {"uv": [39, 74], "uv_size": [1, 2]},
								"south": {"uv": [15, 73], "uv_size": [2, 2]},
								"west": {"uv": [74, 39], "uv_size": [1, 2]},
								"up": {"uv": [40, 74], "uv_size": [2, 1]},
								"down": {"uv": [74, 42], "uv_size": [2, -1]}
							}
						},
						{
							"origin": [-1.2, 12.37722, -17.09105],
							"size": [2.1, 2.1, 3.3],
							"pivot": [-0.15, 13.72722, -14.99105],
							"rotation": [-22, 0, 0],
							"uv": {
								"north": {"uv": [9, 73], "uv_size": [2, 2]},
								"east": {"uv": [42, 71], "uv_size": [3, 2]},
								"south": {"uv": [11, 73], "uv_size": [2, 2]},
								"west": {"uv": [45, 71], "uv_size": [3, 2]},
								"up": {"uv": [51, 65], "uv_size": [2, 3]},
								"down": {"uv": [64, 73], "uv_size": [2, -3]}
							}
						},
						{
							"origin": [-1.2, 12.58377, -12.99108],
							"size": [2.1, 1.2, 5.1],
							"uv": {
								"north": {"uv": [74, 19], "uv_size": [2, 1]},
								"east": {"uv": [56, 72], "uv_size": [4.5, 1]},
								"south": {"uv": [74, 20], "uv_size": [2, 1]},
								"west": {"uv": [0, 73], "uv_size": [4.5, 1]},
								"up": {"uv": [18, 61], "uv_size": [2, 4.5]},
								"down": {"uv": [20, 65.5], "uv_size": [2, -4.5]}
							}
						},
						{
							"origin": [-3.6, 10.8, -8.4],
							"size": [7.2, 4.8, 1.2],
							"uv": {
								"north": {"uv": [6, 34], "uv_size": [6, 4]},
								"east": {"uv": [35, 66], "uv_size": [1, 4]},
								"south": {"uv": [12, 34], "uv_size": [6, 4]},
								"west": {"uv": [25, 73], "uv_size": [1, 4]},
								"up": {"uv": [72, 10], "uv_size": [6, 1]},
								"down": {"uv": [72, 12], "uv_size": [6, -1]}
							}
						},
						{
							"origin": [-4.8, 3.6, -8.52],
							"size": [9.6, 1.2, 13.2],
							"uv": {
								"north": {"uv": [62, 47], "uv_size": [8, 1]},
								"east": {"uv": [59, 13], "uv_size": [11, 1]},
								"south": {"uv": [62, 48], "uv_size": [8, 1]},
								"west": {"uv": [59, 18], "uv_size": [11, 1]},
								"up": {"uv": [24, 0], "uv_size": [8, 11]},
								"down": {"uv": [24, 22], "uv_size": [8, -11]}
							}
						},
						{
							"origin": [3.72, 3.9, -8.52],
							"size": [1.2, 1.2, 13.32],
							"pivot": [4.32, 4.2, -1.8],
							"rotation": [2, 0, 0],
							"uv": {
								"north": {"uv": [75, 5], "uv_size": [1, 1]},
								"east": {"uv": [59, 36], "uv_size": [11, 1]},
								"south": {"uv": [6, 75], "uv_size": [1, 1]},
								"west": {"uv": [59, 37], "uv_size": [11, 1]},
								"up": {"uv": [7, 47], "uv_size": [1, 11]},
								"down": {"uv": [42, 69], "uv_size": [1, -11]}
							}
						},
						{
							"origin": [-4.92, 3.9, -8.52],
							"size": [1.2, 1.2, 13.32],
							"pivot": [-4.32, 4.2, -1.8],
							"rotation": [2, 0, 0],
							"uv": {
								"north": {"uv": [40, 75], "uv_size": [1, 1]},
								"east": {"uv": [59, 38], "uv_size": [11, 1]},
								"south": {"uv": [75, 40], "uv_size": [1, 1]},
								"west": {"uv": [43, 59], "uv_size": [11, 1]},
								"up": {"uv": [29, 59], "uv_size": [1, 11]},
								"down": {"uv": [30, 70], "uv_size": [1, -11]}
							}
						},
						{
							"origin": [-4.69507, 2.68828, -8.4],
							"size": [2.4, 1.2, 13.2],
							"pivot": [-3.49507, 3.28828, -1.8],
							"rotation": [0, 0, 40],
							"uv": {
								"north": {"uv": [74, 24], "uv_size": [2, 1]},
								"east": {"uv": [59, 19], "uv_size": [11, 1]},
								"south": {"uv": [74, 25], "uv_size": [2, 1]},
								"west": {"uv": [59, 20], "uv_size": [11, 1]},
								"up": {"uv": [35, 35], "uv_size": [2, 11]},
								"down": {"uv": [37, 16], "uv_size": [2, -11]}
							}
						},
						{
							"origin": [-1.09507, 2.62035, -0.08409],
							"size": [2.4, 2.4, 11.1],
							"pivot": [0.10493, 4.42035, 5.61591],
							"rotation": [90, 49, 90],
							"uv": {
								"north": {"uv": [5, 73], "uv_size": [2, 2]},
								"east": {"uv": [39, 14], "uv_size": [9.5, 2]},
								"south": {"uv": [7, 73], "uv_size": [2, 2]},
								"west": {"uv": [39, 30], "uv_size": [9.5, 2]},
								"up": {"uv": [25, 40], "uv_size": [2, 9.5]},
								"down": {"uv": [27, 49.5], "uv_size": [2, -9.5]}
							}
						},
						{
							"origin": [0.70493, 6.22035, 3.51591],
							"size": [3.3, 1.2, 6],
							"pivot": [0.10493, 8.02035, 6.51591],
							"rotation": [90, 0, 90],
							"uv": {
								"north": {"uv": [73, 68], "uv_size": [3, 1]},
								"east": {"uv": [12, 72], "uv_size": [5, 1]},
								"south": {"uv": [73, 69], "uv_size": [3, 1]},
								"west": {"uv": [72, 12], "uv_size": [5, 1]},
								"up": {"uv": [3, 47], "uv_size": [3, 5]},
								"down": {"uv": [10, 52], "uv_size": [3, -5]}
							}
						},
						{
							"origin": [-0.37507, 3.58035, 8.31591],
							"size": [3.9, 2.64, 1.2],
							"pivot": [0.22493, 5.62035, 6.51591],
							"rotation": [90, 0, 90],
							"uv": {
								"north": {"uv": [70, 48], "uv_size": [3.5, 2]},
								"east": {"uv": [49, 14], "uv_size": [1, 2]},
								"south": {"uv": [70, 50], "uv_size": [3.5, 2]},
								"west": {"uv": [53, 30], "uv_size": [1, 2]},
								"up": {"uv": [73, 57], "uv_size": [3.5, 1]},
								"down": {"uv": [73, 59], "uv_size": [3.5, -1]}
							}
						},
						{
							"origin": [-3.28493, 3.58035, 8.31591],
							"size": [3.9, 2.64, 1.2],
							"pivot": [0.01507, 5.62035, 6.51591],
							"rotation": [90, 0, -90],
							"uv": {
								"north": {"uv": [51, 70], "uv_size": [3.5, 2]},
								"east": {"uv": [54, 18], "uv_size": [1, 2]},
								"south": {"uv": [70, 52], "uv_size": [3.5, 2]},
								"west": {"uv": [35, 74], "uv_size": [1, 2]},
								"up": {"uv": [73, 59], "uv_size": [3.5, 1]},
								"down": {"uv": [73, 62], "uv_size": [3.5, -1]}
							}
						},
						{
							"origin": [-2.29507, 3.27388, -2.96328],
							"size": [1.2, 1.2, 18],
							"pivot": [0.10493, 2.67388, 6.03672],
							"rotation": [90, 49, 90],
							"uv": {
								"north": {"uv": [53, 69], "uv_size": [1, 1]},
								"east": {"uv": [39, 32], "uv_size": [15, 1]},
								"south": {"uv": [56, 74], "uv_size": [1, 1]},
								"west": {"uv": [39, 33], "uv_size": [15, 1]},
								"up": {"uv": [32, 40], "uv_size": [1, 15]},
								"down": {"uv": [2, 62], "uv_size": [1, -15]}
							}
						},
						{
							"origin": [0.92728, 7.31105, -15.89701],
							"size": [2.4, 1.2, 9],
							"pivot": [2.12728, 7.91105, -12.29701],
							"rotation": [-42.39409, -29.4987, -28.34077],
							"uv": {
								"north": {"uv": [31, 74], "uv_size": [2, 1]},
								"east": {"uv": [3, 67], "uv_size": [7.5, 1]},
								"south": {"uv": [74, 31], "uv_size": [2, 1]},
								"west": {"uv": [67, 5], "uv_size": [7.5, 1]},
								"up": {"uv": [40, 46], "uv_size": [2, 7.5]},
								"down": {"uv": [42, 53.5], "uv_size": [2, -7.5]}
							}
						},
						{
							"origin": [-3.32728, 7.31105, -15.89701],
							"size": [2.4, 1.2, 9],
							"pivot": [-2.12728, 7.91105, -12.29701],
							"rotation": [-42.39409, 29.4987, 28.34077],
							"uv": {
								"north": {"uv": [29, 74], "uv_size": [2, 1]},
								"east": {"uv": [66, 65], "uv_size": [7.5, 1]},
								"south": {"uv": [74, 30], "uv_size": [2, 1]},
								"west": {"uv": [66, 66], "uv_size": [7.5, 1]},
								"up": {"uv": [35, 46], "uv_size": [2, 7.5]},
								"down": {"uv": [37, 53.5], "uv_size": [2, -7.5]}
							}
						},
						{
							"origin": [-3.33838, 2.24165, -9.25609],
							"size": [2.4, 1.2, 2.4],
							"pivot": [-2.13838, 2.84165, -8.05609],
							"rotation": [-43.16196, 29.4, 28.33713],
							"uv": {
								"north": {"uv": [74, 32], "uv_size": [2, 1]},
								"east": {"uv": [33, 74], "uv_size": [2, 1]},
								"south": {"uv": [74, 33], "uv_size": [2, 1]},
								"west": {"uv": [74, 34], "uv_size": [2, 1]},
								"up": {"uv": [51, 68], "uv_size": [2, 2]},
								"down": {"uv": [68, 73], "uv_size": [2, -2]}
							}
						},
						{
							"origin": [0.93838, 2.24165, -9.25609],
							"size": [2.4, 1.2, 2.4],
							"pivot": [2.13838, 2.84165, -8.05609],
							"rotation": [-43.16196, -29.4, -28.33713],
							"uv": {
								"north": {"uv": [74, 35], "uv_size": [2, 1]},
								"east": {"uv": [74, 36], "uv_size": [2, 1]},
								"south": {"uv": [74, 37], "uv_size": [2, 1]},
								"west": {"uv": [74, 38], "uv_size": [2, 1]},
								"up": {"uv": [32, 72], "uv_size": [2, 2]},
								"down": {"uv": [34, 74], "uv_size": [2, -2]}
							}
						},
						{
							"origin": [2.29507, 2.68828, -8.4],
							"size": [2.4, 1.2, 13.2],
							"pivot": [3.49507, 3.28828, -1.8],
							"rotation": [0, 0, -40],
							"uv": {
								"north": {"uv": [74, 26], "uv_size": [2, 1]},
								"east": {"uv": [59, 21], "uv_size": [11, 1]},
								"south": {"uv": [74, 27], "uv_size": [2, 1]},
								"west": {"uv": [59, 35], "uv_size": [11, 1]},
								"up": {"uv": [37, 35], "uv_size": [2, 11]},
								"down": {"uv": [0, 49], "uv_size": [2, -11]}
							}
						},
						{
							"origin": [-3.4322, 7.20221, -15.52804],
							"size": [6.9, 1.2, 9],
							"pivot": [-0.1322, 7.80221, -11.02804],
							"rotation": [-50, 0, 0],
							"uv": {
								"north": {"uv": [71, 22], "uv_size": [6, 1]},
								"east": {"uv": [62, 55], "uv_size": [7.5, 1]},
								"south": {"uv": [71, 23], "uv_size": [6, 1]},
								"west": {"uv": [64, 11], "uv_size": [7.5, 1]},
								"up": {"uv": [24, 22], "uv_size": [6, 7.5]},
								"down": {"uv": [30, 29.5], "uv_size": [6, -7.5]}
							}
						},
						{
							"origin": [-1.62, 5.65128, -16.91222],
							"size": [3.24, 1.2, 10.2],
							"pivot": [0.0478, 6.25128, -11.69222],
							"rotation": [-49.90844, 0, 0],
							"uv": {
								"north": {"uv": [72, 73], "uv_size": [2.5, 1]},
								"east": {"uv": [60, 58], "uv_size": [8.5, 1]},
								"south": {"uv": [73, 72], "uv_size": [2.5, 1]},
								"west": {"uv": [54, 61], "uv_size": [8.5, 1]},
								"up": {"uv": [2, 38], "uv_size": [2.5, 8.5]},
								"down": {"uv": [5, 46.5], "uv_size": [2.5, -8.5]}
							}
						},
						{
							"origin": [-5.9974, 4.55147, 8.40877],
							"size": [2.1, 2.1, 4.8],
							"pivot": [-5.0974, 5.15147, 7.80877],
							"rotation": [9.186, 3.54875, -45.02975],
							"uv": {
								"north": {"uv": [17, 73], "uv_size": [2, 2]},
								"east": {"uv": [58, 66], "uv_size": [4, 2]},
								"south": {"uv": [19, 73], "uv_size": [2, 2]},
								"west": {"uv": [66, 61], "uv_size": [4, 2]},
								"up": {"uv": [39, 61], "uv_size": [2, 4]},
								"down": {"uv": [0, 66], "uv_size": [2, -4]}
							}
						},
						{
							"origin": [-5.6974, 4.55147, 0.00877],
							"size": [1.2, 1.2, 10.8],
							"pivot": [-5.0974, 5.15147, 5.40877],
							"rotation": [9.186, 3.54875, -45.02975],
							"uv": {
								"north": {"uv": [57, 74], "uv_size": [1, 1]},
								"east": {"uv": [60, 28], "uv_size": [9, 1]},
								"south": {"uv": [58, 74], "uv_size": [1, 1]},
								"west": {"uv": [60, 29], "uv_size": [9, 1]},
								"up": {"uv": [24, 60], "uv_size": [1, 9]},
								"down": {"uv": [53, 69], "uv_size": [1, -9]}
							}
						},
						{
							"origin": [4.4974, 4.55147, 0.00877],
							"size": [1.2, 1.2, 10.8],
							"pivot": [5.0974, 5.15147, 5.40877],
							"rotation": [9.186, -3.54875, 45.02975],
							"uv": {
								"north": {"uv": [11, 75], "uv_size": [1, 1]},
								"east": {"uv": [60, 56], "uv_size": [9, 1]},
								"south": {"uv": [12, 75], "uv_size": [1, 1]},
								"west": {"uv": [60, 57], "uv_size": [9, 1]},
								"up": {"uv": [37, 61], "uv_size": [1, 9]},
								"down": {"uv": [38, 70], "uv_size": [1, -9]}
							}
						},
						{
							"origin": [3.8974, 4.55147, 8.40877],
							"size": [2.1, 2.1, 4.8],
							"pivot": [5.0974, 5.15147, 7.80877],
							"rotation": [9.186, -3.54875, 45.02975],
							"uv": {
								"north": {"uv": [21, 73], "uv_size": [2, 2]},
								"east": {"uv": [62, 66], "uv_size": [4, 2]},
								"south": {"uv": [23, 73], "uv_size": [2, 2]},
								"west": {"uv": [66, 63], "uv_size": [4, 2]},
								"up": {"uv": [7, 63], "uv_size": [2, 4]},
								"down": {"uv": [39, 69], "uv_size": [2, -4]}
							}
						}
					]
				},
				{
					"name": "left",
					"parent": "kart",
					"pivot": [0, 0, 0],
					"cubes": [
						{
							"origin": [3.6, 9.66396, -35.68751],
							"size": [1.2, 1.2, 24],
							"pivot": [4.2, 10.26396, -24.88751],
							"rotation": [32.5, 0, 0],
							"uv": {
								"north": {"uv": [43, 58], "uv_size": [1, 1]},
								"east": {"uv": [36, 22], "uv_size": [20, 1]},
								"south": {"uv": [41, 68], "uv_size": [1, 1]},
								"west": {"uv": [36, 23], "uv_size": [20, 1]},
								"up": {"uv": [8, 38], "uv_size": [1, 20]},
								"down": {"uv": [9, 58], "uv_size": [1, -20]}
							}
						},
						{
							"origin": [3.3, 9.36396, -27.28751],
							"size": [1.8, 1.8, 8.4],
							"pivot": [4.2, 10.26396, -24.88751],
							"rotation": [32.5, 0, 0],
							"uv": {
								"north": {"uv": [74, 6], "uv_size": [1.5, 1.5]},
								"east": {"uv": [54, 59], "uv_size": [7, 1.5]},
								"south": {"uv": [74, 13], "uv_size": [1.5, 1.5]},
								"west": {"uv": [60, 5], "uv_size": [7, 1.5]},
								"up": {"uv": [31, 59], "uv_size": [1.5, 7]},
								"down": {"uv": [3, 67], "uv_size": [1.5, -7]}
							}
						},
						{
							"origin": [2.7, 13.2, -17.7],
							"size": [3, 3.3, 0.9],
							"pivot": [4.2, 15, -17.4],
							"rotation": [32.5, 0, 0],
							"uv": {
								"north": {"uv": [29, 52], "uv_size": [2.5, 3]},
								"east": {"uv": [43, 39], "uv_size": [1, 3]},
								"south": {"uv": [0, 66], "uv_size": [2.5, 3]},
								"west": {"uv": [39, 55], "uv_size": [1, 3]},
								"up": {"uv": [73, 70], "uv_size": [2.5, 1]},
								"down": {"uv": [73, 72], "uv_size": [2.5, -1]}
							}
						},
						{
							"origin": [4.5, 3.3, -35.1],
							"size": [1.2, 3, 3],
							"pivot": [4.5, 4.8, -33.6],
							"rotation": [-45, 0, 0],
							"uv": {
								"north": {"uv": [47, 73], "uv_size": [1, 2.5]},
								"east": {"uv": [70, 61], "uv_size": [2.5, 2.5]},
								"south": {"uv": [59, 73], "uv_size": [1, 2.5]},
								"west": {"uv": [70, 67], "uv_size": [2.5, 2.5]},
								"up": {"uv": [60, 73], "uv_size": [1, 2.5]},
								"down": {"uv": [64, 75.5], "uv_size": [1, -2.5]}
							}
						},
						{
							"origin": [1.8, 4.2, -34.2],
							"size": [4.2, 1.2, 1.2],
							"pivot": [2.1, 4.8, -33.6],
							"rotation": [-45, 0, 0],
							"uv": {
								"north": {"uv": [42, 73], "uv_size": [3.5, 1]},
								"east": {"uv": [24, 69], "uv_size": [1, 1]},
								"south": {"uv": [51, 73], "uv_size": [3.5, 1]},
								"west": {"uv": [69, 34], "uv_size": [1, 1]},
								"up": {"uv": [55, 73], "uv_size": [3.5, 1]},
								"down": {"uv": [73, 57], "uv_size": [3.5, -1]}
							}
						}
					]
				},
				{
					"name": "right",
					"parent": "kart",
					"pivot": [0, 0, 0],
					"cubes": [
						{
							"origin": [-4.8, 9.66396, -35.68751],
							"size": [1.2, 1.2, 24],
							"pivot": [-4.2, 10.26396, -24.88751],
							"rotation": [32.5, 0, 0],
							"uv": {
								"north": {"uv": [7, 75], "uv_size": [1, 1]},
								"east": {"uv": [36, 29], "uv_size": [20, 1]},
								"south": {"uv": [8, 75], "uv_size": [1, 1]},
								"west": {"uv": [39, 9], "uv_size": [20, 1]},
								"up": {"uv": [14, 38], "uv_size": [1, 20]},
								"down": {"uv": [15, 58], "uv_size": [1, -20]}
							}
						},
						{
							"origin": [-5.1, 9.36396, -27.28751],
							"size": [1.8, 1.8, 8.4],
							"pivot": [-4.2, 10.26396, -24.88751],
							"rotation": [32.5, 0, 0],
							"uv": {
								"north": {"uv": [74, 15], "uv_size": [1.5, 1.5]},
								"east": {"uv": [60, 7], "uv_size": [7, 1.5]},
								"south": {"uv": [74, 17], "uv_size": [1.5, 1.5]},
								"west": {"uv": [60, 22], "uv_size": [7, 1.5]},
								"up": {"uv": [12, 60], "uv_size": [1.5, 7]},
								"down": {"uv": [60, 46], "uv_size": [1.5, -7]}
							}
						},
						{
							"origin": [-5.7, 13.2, -17.7],
							"size": [3, 3.3, 0.9],
							"pivot": [-4.2, 15, -17.4],
							"rotation": [32.5, 0, 0],
							"uv": {
								"north": {"uv": [67, 6], "uv_size": [2.5, 3]},
								"east": {"uv": [36, 73], "uv_size": [1, 3]},
								"south": {"uv": [11, 67], "uv_size": [2.5, 3]},
								"west": {"uv": [46, 73], "uv_size": [1, 3]},
								"up": {"uv": [0, 74], "uv_size": [2.5, 1]},
								"down": {"uv": [74, 1], "uv_size": [2.5, -1]}
							}
						},
						{
							"origin": [-5.7, 3.3, -35.1],
							"size": [1.2, 3, 3],
							"pivot": [-4.5, 4.8, -33.6],
							"rotation": [-45, 0, 0],
							"uv": {
								"north": {"uv": [65, 73], "uv_size": [1, 2.5]},
								"east": {"uv": [70, 70], "uv_size": [2.5, 2.5]},
								"south": {"uv": [74, 1], "uv_size": [1, 2.5]},
								"west": {"uv": [39, 71], "uv_size": [2.5, 2.5]},
								"up": {"uv": [3, 74], "uv_size": [1, 2.5]},
								"down": {"uv": [4, 76.5], "uv_size": [1, -2.5]}
							}
						},
						{
							"origin": [-6, 4.2, -34.2],
							"size": [4.2, 1.2, 1.2],
							"pivot": [-2.1, 4.8, -33.6],
							"rotation": [-45, 0, 0],
							"uv": {
								"north": {"uv": [73, 62], "uv_size": [3.5, 1]},
								"east": {"uv": [9, 75], "uv_size": [1, 1]},
								"south": {"uv": [73, 63], "uv_size": [3.5, 1]},
								"west": {"uv": [10, 75], "uv_size": [1, 1]},
								"up": {"uv": [73, 67], "uv_size": [3.5, 1]},
								"down": {"uv": [68, 74], "uv_size": [3.5, -1]}
							}
						}
					]
				},
				{
					"name": "wheels",
					"parent": "kart",
					"pivot": [-1.2, 4.8, -33.6]
				},
				{
					"name": "wheels_left",
					"parent": "wheels",
					"pivot": [-1.2, 4.8, -33.6]
				},
				{
					"name": "back_left",
					"parent": "wheels_left",
					"pivot": [9.6, 4.8, 6.6],
					"cubes": [
						{
							"origin": [7.206, 7.2, 4.62],
							"size": [4.788, 2.4, 3.96],
							"uv": {
								"north": {"uv": [14, 66], "uv_size": [4, 2]},
								"east": {"uv": [70, 19], "uv_size": [3.5, 2]},
								"south": {"uv": [66, 14], "uv_size": [4, 2]},
								"west": {"uv": [20, 70], "uv_size": [3.5, 2]},
								"up": {"uv": [56, 5], "uv_size": [4, 3.5]},
								"down": {"uv": [10, 59.5], "uv_size": [4, -3.5]}
							}
						},
						{
							"origin": [7.2, 7.2, 4.62],
							"size": [4.8, 2.4, 3.96],
							"pivot": [10.8, 4.8, 6.6],
							"rotation": [-45, 0, 0],
							"uv": {
								"north": {"uv": [66, 16], "uv_size": [4, 2]},
								"east": {"uv": [24, 70], "uv_size": [3.5, 2]},
								"south": {"uv": [18, 66], "uv_size": [4, 2]},
								"west": {"uv": [70, 24], "uv_size": [3.5, 2]},
								"up": {"uv": [56, 22], "uv_size": [4, 3.5]},
								"down": {"uv": [56, 29.5], "uv_size": [4, -3.5]}
							}
						},
						{
							"origin": [7.206, 7.2, 4.62],
							"size": [4.788, 2.4, 3.96],
							"pivot": [10.8, 4.8, 6.6],
							"rotation": [-90, 0, 0],
							"uv": {
								"north": {"uv": [25, 66], "uv_size": [4, 2]},
								"east": {"uv": [70, 26], "uv_size": [3.5, 2]},
								"south": {"uv": [66, 30], "uv_size": [4, 2]},
								"west": {"uv": [28, 70], "uv_size": [3.5, 2]},
								"up": {"uv": [56, 39], "uv_size": [4, 3.5]},
								"down": {"uv": [56, 46.5], "uv_size": [4, -3.5]}
							}
						},
						{
							"origin": [7.2, 7.2, 4.62],
							"size": [4.8, 2.4, 3.96],
							"pivot": [10.8, 4.8, 6.6],
							"rotation": [-135, 0, 0],
							"uv": {
								"north": {"uv": [31, 66], "uv_size": [4, 2]},
								"east": {"uv": [70, 30], "uv_size": [3.5, 2]},
								"south": {"uv": [66, 32], "uv_size": [4, 2]},
								"west": {"uv": [32, 70], "uv_size": [3.5, 2]},
								"up": {"uv": [56, 47], "uv_size": [4, 3.5]},
								"down": {"uv": [56, 54.5], "uv_size": [4, -3.5]}
							}
						},
						{
							"origin": [7.206, 7.2, 4.62],
							"size": [4.788, 2.4, 3.96],
							"pivot": [10.8, 4.8, 6.6],
							"rotation": [180, 0, 0],
							"uv": {
								"north": {"uv": [66, 39], "uv_size": [4, 2]},
								"east": {"uv": [70, 32], "uv_size": [3.5, 2]},
								"south": {"uv": [66, 41], "uv_size": [4, 2]},
								"west": {"uv": [70, 34], "uv_size": [3.5, 2]},
								"up": {"uv": [56, 55], "uv_size": [4, 3.5]},
								"down": {"uv": [18, 60.5], "uv_size": [4, -3.5]}
							}
						},
						{
							"origin": [7.2, 7.2, 4.62],
							"size": [4.8, 2.4, 3.96],
							"pivot": [10.8, 4.8, 6.6],
							"rotation": [135, 0, 0],
							"uv": {
								"north": {"uv": [66, 43], "uv_size": [4, 2]},
								"east": {"uv": [70, 36], "uv_size": [3.5, 2]},
								"south": {"uv": [66, 45], "uv_size": [4, 2]},
								"west": {"uv": [70, 38], "uv_size": [3.5, 2]},
								"up": {"uv": [58, 0], "uv_size": [4, 3.5]},
								"down": {"uv": [14, 61.5], "uv_size": [4, -3.5]}
							}
						},
						{
							"origin": [7.206, 7.2, 4.62],
							"size": [4.788, 2.4, 3.96],
							"pivot": [10.8, 4.8, 6.6],
							"rotation": [90, 0, 0],
							"uv": {
								"north": {"uv": [66, 49], "uv_size": [4, 2]},
								"east": {"uv": [70, 40], "uv_size": [3.5, 2]},
								"south": {"uv": [66, 51], "uv_size": [4, 2]},
								"west": {"uv": [70, 42], "uv_size": [3.5, 2]},
								"up": {"uv": [58, 14], "uv_size": [4, 3.5]},
								"down": {"uv": [25, 61.5], "uv_size": [4, -3.5]}
							}
						},
						{
							"origin": [7.2, 7.2, 4.62],
							"size": [4.8, 2.4, 3.96],
							"pivot": [10.8, 4.8, 6.6],
							"rotation": [45, 0, 0],
							"uv": {
								"north": {"uv": [66, 53], "uv_size": [4, 2]},
								"east": {"uv": [70, 44], "uv_size": [3.5, 2]},
								"south": {"uv": [54, 66], "uv_size": [4, 2]},
								"west": {"uv": [70, 46], "uv_size": [3.5, 2]},
								"up": {"uv": [58, 30], "uv_size": [4, 3.5]},
								"down": {"uv": [33, 61.5], "uv_size": [4, -3.5]}
							}
						},
						{
							"origin": [11.7, 2.4, 4.2],
							"size": [0, 4.8, 4.8],
							"uv": {
								"north": {"uv": [0, 0], "uv_size": [0, 4]},
								"east": {"uv": [44, 43], "uv_size": [4, 4]},
								"south": {"uv": [0, 0], "uv_size": [0, 4]},
								"west": {"uv": [46, 16], "uv_size": [4, 4]},
								"up": {"uv": [0, 0], "uv_size": [0, 4]},
								"down": {"uv": [0, 4], "uv_size": [0, -4]}
							}
						},
						{
							"origin": [7.5, 2.4, 3.6],
							"size": [0, 4.8, 6],
							"uv": {
								"north": {"uv": [0, 0], "uv_size": [0, 4]},
								"east": {"uv": [37, 16], "uv_size": [5, 4]},
								"south": {"uv": [0, 0], "uv_size": [0, 4]},
								"west": {"uv": [39, 5], "uv_size": [5, 4]},
								"up": {"uv": [0, 0], "uv_size": [0, 5]},
								"down": {"uv": [0, 5], "uv_size": [0, -5]}
							}
						}
					]
				},
				{
					"name": "front_left",
					"parent": "wheels_left",
					"pivot": [0, 4.8, -33.6],
					"cubes": [
						{
							"origin": [-2.394, 7.2, -35.58],
							"size": [4.788, 2.4, 3.96],
							"uv": {
								"north": {"uv": [49, 30], "uv_size": [4, 2]},
								"east": {"uv": [67, 22], "uv_size": [3.5, 2]},
								"south": {"uv": [50, 18], "uv_size": [4, 2]},
								"west": {"uv": [43, 67], "uv_size": [3.5, 2]},
								"up": {"uv": [47, 35], "uv_size": [4, 3.5]},
								"down": {"uv": [44, 50.5], "uv_size": [4, -3.5]}
							}
						},
						{
							"origin": [-2.4, 7.2, -35.58],
							"size": [4.8, 2.4, 3.96],
							"pivot": [1.2, 4.8, -33.6],
							"rotation": [-45, 0, 0],
							"uv": {
								"north": {"uv": [61, 59], "uv_size": [4, 2]},
								"east": {"uv": [47, 67], "uv_size": [3.5, 2]},
								"south": {"uv": [62, 0], "uv_size": [4, 2]},
								"west": {"uv": [66, 67], "uv_size": [3.5, 2]},
								"up": {"uv": [48, 5], "uv_size": [4, 3.5]},
								"down": {"uv": [48, 27.5], "uv_size": [4, -3.5]}
							}
						},
						{
							"origin": [-2.394, 7.2, -35.58],
							"size": [4.788, 2.4, 3.96],
							"pivot": [1.2, 4.8, -33.6],
							"rotation": [-90, 0, 0],
							"uv": {
								"north": {"uv": [62, 2], "uv_size": [4, 2]},
								"east": {"uv": [3, 68], "uv_size": [3.5, 2]},
								"south": {"uv": [14, 62], "uv_size": [4, 2]},
								"west": {"uv": [7, 68], "uv_size": [3.5, 2]},
								"up": {"uv": [48, 39], "uv_size": [4, 3.5]},
								"down": {"uv": [48, 46.5], "uv_size": [4, -3.5]}
							}
						},
						{
							"origin": [-2.4, 7.2, -35.58],
							"size": [4.8, 2.4, 3.96],
							"pivot": [1.2, 4.8, -33.6],
							"rotation": [-135, 0, 0],
							"uv": {
								"north": {"uv": [62, 14], "uv_size": [4, 2]},
								"east": {"uv": [68, 9], "uv_size": [3.5, 2]},
								"south": {"uv": [62, 16], "uv_size": [4, 2]},
								"west": {"uv": [14, 68], "uv_size": [3.5, 2]},
								"up": {"uv": [48, 47], "uv_size": [4, 3.5]},
								"down": {"uv": [50, 17.5], "uv_size": [4, -3.5]}
							}
						},
						{
							"origin": [-2.394, 7.2, -35.58],
							"size": [4.788, 2.4, 3.96],
							"pivot": [1.2, 4.8, -33.6],
							"rotation": [180, 0, 0],
							"uv": {
								"north": {"uv": [25, 62], "uv_size": [4, 2]},
								"east": {"uv": [18, 68], "uv_size": [3.5, 2]},
								"south": {"uv": [62, 30], "uv_size": [4, 2]},
								"west": {"uv": [25, 68], "uv_size": [3.5, 2]},
								"up": {"uv": [25, 50], "uv_size": [4, 3.5]},
								"down": {"uv": [51, 38.5], "uv_size": [4, -3.5]}
							}
						},
						{
							"origin": [-2.4, 7.2, -35.58],
							"size": [4.8, 2.4, 3.96],
							"pivot": [1.2, 4.8, -33.6],
							"rotation": [135, 0, 0],
							"uv": {
								"north": {"uv": [62, 32], "uv_size": [4, 2]},
								"east": {"uv": [31, 68], "uv_size": [3.5, 2]},
								"south": {"uv": [33, 62], "uv_size": [4, 2]},
								"west": {"uv": [54, 68], "uv_size": [3.5, 2]},
								"up": {"uv": [44, 51], "uv_size": [4, 3.5]},
								"down": {"uv": [48, 54.5], "uv_size": [4, -3.5]}
							}
						},
						{
							"origin": [-2.394, 7.2, -35.58],
							"size": [4.788, 2.4, 3.96],
							"pivot": [1.2, 4.8, -33.6],
							"rotation": [90, 0, 0],
							"uv": {
								"north": {"uv": [62, 39], "uv_size": [4, 2]},
								"east": {"uv": [58, 68], "uv_size": [3.5, 2]},
								"south": {"uv": [62, 41], "uv_size": [4, 2]},
								"west": {"uv": [62, 68], "uv_size": [3.5, 2]},
								"up": {"uv": [3, 52], "uv_size": [4, 3.5]},
								"down": {"uv": [52, 8.5], "uv_size": [4, -3.5]}
							}
						},
						{
							"origin": [-2.4, 7.2, -35.58],
							"size": [4.8, 2.4, 3.96],
							"pivot": [1.2, 4.8, -33.6],
							"rotation": [45, 0, 0],
							"uv": {
								"north": {"uv": [62, 43], "uv_size": [4, 2]},
								"east": {"uv": [69, 28], "uv_size": [3.5, 2]},
								"south": {"uv": [62, 45], "uv_size": [4, 2]},
								"west": {"uv": [39, 69], "uv_size": [3.5, 2]},
								"up": {"uv": [10, 52], "uv_size": [4, 3.5]},
								"down": {"uv": [52, 27.5], "uv_size": [4, -3.5]}
							}
						},
						{
							"origin": [2.1, 2.4, -36],
							"size": [0, 4.8, 4.8],
							"uv": {
								"north": {"uv": [0, 0], "uv_size": [0, 4]},
								"east": {"uv": [40, 24], "uv_size": [4, 4]},
								"south": {"uv": [0, 0], "uv_size": [0, 4]},
								"west": {"uv": [42, 16], "uv_size": [4, 4]},
								"up": {"uv": [0, 0], "uv_size": [0, 4]},
								"down": {"uv": [0, 4], "uv_size": [0, -4]}
							}
						},
						{
							"origin": [-2.1, 2.4, -36],
							"size": [0, 4.8, 4.8],
							"uv": {
								"north": {"uv": [0, 0], "uv_size": [0, 4]},
								"east": {"uv": [40, 42], "uv_size": [4, 4]},
								"south": {"uv": [0, 0], "uv_size": [0, 4]},
								"west": {"uv": [10, 43], "uv_size": [4, 4]},
								"up": {"uv": [0, 0], "uv_size": [0, 4]},
								"down": {"uv": [0, 4], "uv_size": [0, -4]}
							}
						}
					]
				},
				{
					"name": "wheels_right",
					"parent": "wheels",
					"pivot": [-1.2, 4.8, -33.6]
				},
				{
					"name": "back_right",
					"parent": "wheels_right",
					"pivot": [-9.6, 4.8, 6.6],
					"cubes": [
						{
							"origin": [-11.994, 7.2, 4.62],
							"size": [4.788, 2.4, 3.96],
							"uv": {
								"north": {"uv": [62, 53], "uv_size": [4, 2]},
								"east": {"uv": [43, 69], "uv_size": [3.5, 2]},
								"south": {"uv": [54, 62], "uv_size": [4, 2]},
								"west": {"uv": [47, 69], "uv_size": [3.5, 2]},
								"up": {"uv": [52, 39], "uv_size": [4, 3.5]},
								"down": {"uv": [52, 46.5], "uv_size": [4, -3.5]}
							}
						},
						{
							"origin": [-12, 7.2, 4.62],
							"size": [4.8, 2.4, 3.96],
							"pivot": [-8.4, 4.8, 6.6],
							"rotation": [-45, 0, 0],
							"uv": {
								"north": {"uv": [58, 62], "uv_size": [4, 2]},
								"east": {"uv": [69, 56], "uv_size": [3.5, 2]},
								"south": {"uv": [62, 62], "uv_size": [4, 2]},
								"west": {"uv": [69, 58], "uv_size": [3.5, 2]},
								"up": {"uv": [52, 47], "uv_size": [4, 3.5]},
								"down": {"uv": [52, 54.5], "uv_size": [4, -3.5]}
							}
						},
						{
							"origin": [-11.994, 7.2, 4.62],
							"size": [4.788, 2.4, 3.96],
							"pivot": [-8.4, 4.8, 6.6],
							"rotation": [-90, 0, 0],
							"uv": {
								"north": {"uv": [64, 9], "uv_size": [4, 2]},
								"east": {"uv": [66, 69], "uv_size": [3.5, 2]},
								"south": {"uv": [14, 64], "uv_size": [4, 2]},
								"west": {"uv": [0, 70], "uv_size": [3.5, 2]},
								"up": {"uv": [54, 14], "uv_size": [4, 3.5]},
								"down": {"uv": [25, 57.5], "uv_size": [4, -3.5]}
							}
						},
						{
							"origin": [-12, 7.2, 4.62],
							"size": [4.8, 2.4, 3.96],
							"pivot": [-8.4, 4.8, 6.6],
							"rotation": [-135, 0, 0],
							"uv": {
								"north": {"uv": [25, 64], "uv_size": [4, 2]},
								"east": {"uv": [70, 0], "uv_size": [3.5, 2]},
								"south": {"uv": [33, 64], "uv_size": [4, 2]},
								"west": {"uv": [70, 2], "uv_size": [3.5, 2]},
								"up": {"uv": [54, 30], "uv_size": [4, 3.5]},
								"down": {"uv": [35, 57.5], "uv_size": [4, -3.5]}
							}
						},
						{
							"origin": [-11.994, 7.2, 4.62],
							"size": [4.788, 2.4, 3.96],
							"pivot": [-8.4, 4.8, 6.6],
							"rotation": [180, 0, 0],
							"uv": {
								"north": {"uv": [54, 64], "uv_size": [4, 2]},
								"east": {"uv": [4, 70], "uv_size": [3.5, 2]},
								"south": {"uv": [58, 64], "uv_size": [4, 2]},
								"west": {"uv": [70, 6], "uv_size": [3.5, 2]},
								"up": {"uv": [40, 54], "uv_size": [4, 3.5]},
								"down": {"uv": [55, 21.5], "uv_size": [4, -3.5]}
							}
						},
						{
							"origin": [-12, 7.2, 4.62],
							"size": [4.8, 2.4, 3.96],
							"pivot": [-8.4, 4.8, 6.6],
							"rotation": [135, 0, 0],
							"uv": {
								"north": {"uv": [62, 64], "uv_size": [4, 2]},
								"east": {"uv": [8, 70], "uv_size": [3.5, 2]},
								"south": {"uv": [43, 65], "uv_size": [4, 2]},
								"west": {"uv": [12, 70], "uv_size": [3.5, 2]},
								"up": {"uv": [29, 55], "uv_size": [4, 3.5]},
								"down": {"uv": [55, 38.5], "uv_size": [4, -3.5]}
							}
						},
						{
							"origin": [-11.994, 7.2, 4.62],
							"size": [4.788, 2.4, 3.96],
							"pivot": [-8.4, 4.8, 6.6],
							"rotation": [90, 0, 0],
							"uv": {
								"north": {"uv": [47, 65], "uv_size": [4, 2]},
								"east": {"uv": [70, 13], "uv_size": [3.5, 2]},
								"south": {"uv": [65, 59], "uv_size": [4, 2]},
								"west": {"uv": [70, 15], "uv_size": [3.5, 2]},
								"up": {"uv": [44, 55], "uv_size": [4, 3.5]},
								"down": {"uv": [48, 58.5], "uv_size": [4, -3.5]}
							}
						},
						{
							"origin": [-12, 7.2, 4.62],
							"size": [4.8, 2.4, 3.96],
							"pivot": [-8.4, 4.8, 6.6],
							"rotation": [45, 0, 0],
							"uv": {
								"north": {"uv": [66, 0], "uv_size": [4, 2]},
								"east": {"uv": [16, 70], "uv_size": [3.5, 2]},
								"south": {"uv": [66, 2], "uv_size": [4, 2]},
								"west": {"uv": [70, 17], "uv_size": [3.5, 2]},
								"up": {"uv": [52, 55], "uv_size": [4, 3.5]},
								"down": {"uv": [3, 59.5], "uv_size": [4, -3.5]}
							}
						},
						{
							"origin": [-7.5, 2.4, 4.2],
							"size": [0, 4.8, 4.8],
							"uv": {
								"north": {"uv": [0, 0], "uv_size": [0, 4]},
								"east": {"uv": [43, 35], "uv_size": [4, 4]},
								"south": {"uv": [0, 0], "uv_size": [0, 4]},
								"west": {"uv": [44, 5], "uv_size": [4, 4]},
								"up": {"uv": [0, 0], "uv_size": [0, 4]},
								"down": {"uv": [0, 4], "uv_size": [0, -4]}
							}
						},
						{
							"origin": [-11.7, 2.4, 4.2],
							"size": [0, 4.8, 4.8],
							"uv": {
								"north": {"uv": [0, 0], "uv_size": [0, 4]},
								"east": {"uv": [44, 24], "uv_size": [4, 4]},
								"south": {"uv": [0, 0], "uv_size": [0, 4]},
								"west": {"uv": [44, 39], "uv_size": [4, 4]},
								"up": {"uv": [0, 0], "uv_size": [0, 4]},
								"down": {"uv": [0, 4], "uv_size": [0, -4]}
							}
						}
					]
				},
				{
					"name": "sige",
					"parent": "kart",
					"pivot": [0, 0, 0],
					"cubes": [
						{
							"origin": [-0.294, 8.7, 1.2],
							"size": [3.588, 1.2, 12],
							"pivot": [0.9, 9.3, 7.2],
							"rotation": [-117.18466, -6.97915, -13.31059],
							"uv": {
								"north": {"uv": [53, 28], "uv_size": [3, 1]},
								"east": {"uv": [60, 24], "uv_size": [10, 1]},
								"south": {"uv": [63, 61], "uv_size": [3, 1]},
								"west": {"uv": [60, 25], "uv_size": [10, 1]},
								"up": {"uv": [24, 30], "uv_size": [3, 10]},
								"down": {"uv": [27, 40], "uv_size": [3, -10]}
							}
						},
						{
							"origin": [-3.294, 8.7, 1.2],
							"size": [3.588, 1.2, 12],
							"pivot": [-0.9, 9.3, 7.2],
							"rotation": [-117.18466, 6.97915, 13.31059],
							"uv": {
								"north": {"uv": [0, 69], "uv_size": [3, 1]},
								"east": {"uv": [60, 26], "uv_size": [10, 1]},
								"south": {"uv": [29, 73], "uv_size": [3, 1]},
								"west": {"uv": [60, 27], "uv_size": [10, 1]},
								"up": {"uv": [30, 30], "uv_size": [3, 10]},
								"down": {"uv": [32, 10], "uv_size": [3, -10]}
							}
						},
						{
							"origin": [-3.6, 3.6, 4.8],
							"size": [7.2, 4.8, 1.32],
							"pivot": [0, 6, 5.4],
							"rotation": [-27.5, 0, 0],
							"uv": {
								"north": {"uv": [33, 30], "uv_size": [6, 4]},
								"east": {"uv": [2, 62], "uv_size": [1, 4]},
								"south": {"uv": [0, 34], "uv_size": [6, 4]},
								"west": {"uv": [9, 63], "uv_size": [1, 4]},
								"up": {"uv": [70, 64], "uv_size": [6, 1]},
								"down": {"uv": [71, 5], "uv_size": [6, -1]}
							}
						},
						{
							"origin": [-1.5, 7.2, 8.52],
							"size": [3, 8.4, 1.74],
							"pivot": [0, 13.2, 9],
							"rotation": [-28.5, 0, 0],
							"uv": {
								"north": {"uv": [29, 40], "uv_size": [2.5, 7]},
								"east": {"uv": [5, 60], "uv_size": [1.5, 7]},
								"south": {"uv": [40, 35], "uv_size": [2.5, 7]},
								"west": {"uv": [10, 60], "uv_size": [1.5, 7]},
								"up": {"uv": [26, 73], "uv_size": [2.5, 1.5]},
								"down": {"uv": [73, 29.5], "uv_size": [2.5, -1.5]}
							}
						}
					]
				},
				{
					"name": "pipes",
					"parent": "kart",
					"pivot": [0, 0, 0],
					"cubes": [
						{
							"origin": [-4.81951, 2.92049, -13.52108],
							"size": [1.2, 1.2, 6],
							"pivot": [-4.09951, 3.468, -10.40108],
							"rotation": [0, 64.5, 135],
							"uv": {
								"north": {"uv": [68, 74], "uv_size": [1, 1]},
								"east": {"uv": [17, 72], "uv_size": [5, 1]},
								"south": {"uv": [69, 74], "uv_size": [1, 1]},
								"west": {"uv": [22, 72], "uv_size": [5, 1]},
								"up": {"uv": [6, 47], "uv_size": [1, 5]},
								"down": {"uv": [13, 52], "uv_size": [1, -5]}
							}
						},
						{
							"origin": [-2.83758, 4.06242, -12.91935],
							"size": [1.2, 1.2, 2.4],
							"pivot": [-2.83758, 4.66242, -11.11935],
							"rotation": [180, 25.5, -45],
							"uv": {
								"north": {"uv": [70, 74], "uv_size": [1, 1]},
								"east": {"uv": [74, 45], "uv_size": [2, 1]},
								"south": {"uv": [71, 74], "uv_size": [1, 1]},
								"west": {"uv": [74, 46], "uv_size": [2, 1]},
								"up": {"uv": [45, 74], "uv_size": [1, 2]},
								"down": {"uv": [74, 49], "uv_size": [1, -2]}
							}
						},
						{
							"origin": [-6.24853, 1.25147, -9.6],
							"size": [1.2, 1.2, 8.4],
							"pivot": [-5.64853, 1.85147, -1.8],
							"rotation": [0, 0, -45],
							"uv": {
								"north": {"uv": [75, 3], "uv_size": [1, 1]},
								"east": {"uv": [70, 21], "uv_size": [7, 1]},
								"south": {"uv": [5, 75], "uv_size": [1, 1]},
								"west": {"uv": [70, 54], "uv_size": [7, 1]},
								"up": {"uv": [37, 70], "uv_size": [1, 7]},
								"down": {"uv": [38, 77], "uv_size": [1, -7]}
							}
						},
						{
							"origin": [-4.97574, 2.52426, -3],
							"size": [1.2, 1.2, 2.4],
							"pivot": [-4.37574, 3.12426, -1.8],
							"rotation": [-90, 90, 45],
							"uv": {
								"north": {"uv": [74, 65], "uv_size": [1, 1]},
								"east": {"uv": [42, 74], "uv_size": [2, 1]},
								"south": {"uv": [74, 66], "uv_size": [1, 1]},
								"west": {"uv": [74, 42], "uv_size": [2, 1]},
								"up": {"uv": [74, 43], "uv_size": [1, 2]},
								"down": {"uv": [44, 76], "uv_size": [1, -2]}
							}
						}
					]
				},
				{
					"name": "pipes2",
					"parent": "kart",
					"pivot": [0, 0, 0],
					"cubes": [
						{
							"origin": [3.61951, 2.92049, -13.52108],
							"size": [1.2, 1.2, 6],
							"pivot": [4.09951, 3.468, -10.40108],
							"rotation": [0, -64.5, -135],
							"uv": {
								"north": {"uv": [72, 74], "uv_size": [1, 1]},
								"east": {"uv": [27, 72], "uv_size": [5, 1]},
								"south": {"uv": [73, 74], "uv_size": [1, 1]},
								"west": {"uv": [51, 72], "uv_size": [5, 1]},
								"up": {"uv": [66, 71], "uv_size": [1, 5]},
								"down": {"uv": [67, 76], "uv_size": [1, -5]}
							}
						},
						{
							"origin": [1.63758, 4.06242, -12.91935],
							"size": [1.2, 1.2, 2.4],
							"pivot": [2.83758, 4.66242, -11.11935],
							"rotation": [180, -25.5, 45],
							"uv": {
								"north": {"uv": [74, 74], "uv_size": [1, 1]},
								"east": {"uv": [74, 49], "uv_size": [2, 1]},
								"south": {"uv": [0, 75], "uv_size": [1, 1]},
								"west": {"uv": [74, 50], "uv_size": [2, 1]},
								"up": {"uv": [51, 74], "uv_size": [1, 2]},
								"down": {"uv": [74, 53], "uv_size": [1, -2]}
							}
						},
						{
							"origin": [5.04853, 1.25147, -9.6],
							"size": [1.2, 1.2, 8.4],
							"pivot": [5.64853, 1.85147, -1.8],
							"rotation": [0, 0, 45],
							"uv": {
								"north": {"uv": [1, 75], "uv_size": [1, 1]},
								"east": {"uv": [69, 60], "uv_size": [7, 1]},
								"south": {"uv": [75, 1], "uv_size": [1, 1]},
								"west": {"uv": [70, 8], "uv_size": [7, 1]},
								"up": {"uv": [41, 61], "uv_size": [1, 7]},
								"down": {"uv": [36, 73], "uv_size": [1, -7]}
							}
						},
						{
							"origin": [3.77574, 2.52426, -3],
							"size": [1.2, 1.2, 2.4],
							"pivot": [4.37574, 3.12426, -1.8],
							"rotation": [-90, -90, -45],
							"uv": {
								"north": {"uv": [2, 75], "uv_size": [1, 1]},
								"east": {"uv": [52, 74], "uv_size": [2, 1]},
								"south": {"uv": [75, 2], "uv_size": [1, 1]},
								"west": {"uv": [74, 53], "uv_size": [2, 1]},
								"up": {"uv": [54, 74], "uv_size": [1, 2]},
								"down": {"uv": [55, 76], "uv_size": [1, -2]}
							}
						}
					]
				},
				{
					"name": "delta",
					"parent": "kart",
					"pivot": [-0.31625, 32.91659, 2.5937],
					"cubes": [
						{
							"origin": [-4.8, 29.80391, -8.43405],
							"size": [1.2, 1.2, 27.6],
							"pivot": [-4.2, 23.80391, -3.63405],
							"rotation": [0, 0, 0],
							"uv": {
								"north": {"uv": [17, 75], "uv_size": [1, 1]},
								"east": {"uv": [32, 20], "uv_size": [23, 1]},
								"south": {"uv": [18, 75], "uv_size": [1, 1]},
								"west": {"uv": [32, 21], "uv_size": [23, 1]},
								"up": {"uv": [18, 34], "uv_size": [1, 23]},
								"down": {"uv": [19, 57], "uv_size": [1, -23]}
							}
						},
						{
							"origin": [-0.6, 29.80391, 2.36595],
							"size": [1.2, 1.2, 7.2],
							"pivot": [0, 30.40391, 5.96595],
							"rotation": [0, -90, 0],
							"uv": {
								"north": {"uv": [26, 75], "uv_size": [1, 1]},
								"east": {"uv": [55, 71], "uv_size": [6, 1]},
								"south": {"uv": [27, 75], "uv_size": [1, 1]},
								"west": {"uv": [0, 72], "uv_size": [6, 1]},
								"up": {"uv": [48, 71], "uv_size": [1, 6]},
								"down": {"uv": [49, 77], "uv_size": [1, -6]}
							}
						},
						{
							"origin": [-12.6, 29.80391, 6.86595],
							"size": [1.2, 1.2, 15],
							"pivot": [-12, 30.40391, 14.06595],
							"rotation": [0, -90, 0],
							"uv": {
								"north": {"uv": [30, 75], "uv_size": [1, 1]},
								"east": {"uv": [40, 28], "uv_size": [12.5, 1]},
								"south": {"uv": [31, 75], "uv_size": [1, 1]},
								"west": {"uv": [56, 34], "uv_size": [12.5, 1]},
								"up": {"uv": [0, 49], "uv_size": [1, 12.5]},
								"down": {"uv": [1, 61.5], "uv_size": [1, -12.5]}
							}
						},
						{
							"origin": [12, 29.80391, 6.86595],
							"size": [1.2, 1.2, 15],
							"pivot": [12.6, 30.40391, 14.06595],
							"rotation": [0, -90, 0],
							"uv": {
								"north": {"uv": [32, 75], "uv_size": [1, 1]},
								"east": {"uv": [58, 4], "uv_size": [12.5, 1]},
								"south": {"uv": [33, 75], "uv_size": [1, 1]},
								"west": {"uv": [59, 12], "uv_size": [12.5, 1]},
								"up": {"uv": [22, 57], "uv_size": [1, 12.5]},
								"down": {"uv": [23, 69.5], "uv_size": [1, -12.5]}
							}
						},
						{
							"origin": [-0.6, 29.80391, -1.23405],
							"size": [1.2, 1.2, 7.2],
							"pivot": [0, 30.40391, 2.36595],
							"rotation": [0, -90, 0],
							"uv": {
								"north": {"uv": [28, 75], "uv_size": [1, 1]},
								"east": {"uv": [6, 72], "uv_size": [6, 1]},
								"south": {"uv": [29, 75], "uv_size": [1, 1]},
								"west": {"uv": [72, 9], "uv_size": [6, 1]},
								"up": {"uv": [50, 71], "uv_size": [1, 6]},
								"down": {"uv": [61, 77], "uv_size": [1, -6]}
							}
						},
						{
							"origin": [-11.90461, 29.80391, -10.40292],
							"size": [1.2, 1.2, 27.6],
							"pivot": [-11.30461, 30.40391, 1.89708],
							"rotation": [0, -35.5, 0],
							"uv": {
								"north": {"uv": [21, 75], "uv_size": [1, 1]},
								"east": {"uv": [35, 1], "uv_size": [23, 1]},
								"south": {"uv": [22, 75], "uv_size": [1, 1]},
								"west": {"uv": [35, 2], "uv_size": [23, 1]},
								"up": {"uv": [22, 34], "uv_size": [1, 23]},
								"down": {"uv": [23, 57], "uv_size": [1, -23]}
							}
						},
						{
							"origin": [10.70461, 29.80391, -10.40292],
							"size": [1.2, 1.2, 27.6],
							"pivot": [11.30461, 30.40391, 1.89708],
							"rotation": [0, 35.5, 0],
							"uv": {
								"north": {"uv": [23, 75], "uv_size": [1, 1]},
								"east": {"uv": [35, 3], "uv_size": [23, 1]},
								"south": {"uv": [24, 75], "uv_size": [1, 1]},
								"west": {"uv": [35, 4], "uv_size": [23, 1]},
								"up": {"uv": [33, 35], "uv_size": [1, 23]},
								"down": {"uv": [34, 58], "uv_size": [1, -23]}
							}
						},
						{
							"origin": [-4.8, 23.20391, -15.63405],
							"size": [1.2, 1.2, 24],
							"pivot": [-4.2, 23.80391, -3.63405],
							"rotation": [32.5, 0, 0],
							"uv": {
								"north": {"uv": [13, 75], "uv_size": [1, 1]},
								"east": {"uv": [39, 10], "uv_size": [20, 1]},
								"south": {"uv": [14, 75], "uv_size": [1, 1]},
								"west": {"uv": [39, 11], "uv_size": [20, 1]},
								"up": {"uv": [16, 38], "uv_size": [1, 20]},
								"down": {"uv": [17, 58], "uv_size": [1, -20]}
							}
						},
						{
							"origin": [3.6, 9.66396, -11.68751],
							"size": [1.2, 1.2, 24],
							"pivot": [-4.2, 10.26396, -24.88751],
							"rotation": [32.5, 0, 0],
							"uv": {
								"north": {"uv": [15, 75], "uv_size": [1, 1]},
								"east": {"uv": [39, 12], "uv_size": [20, 1]},
								"south": {"uv": [16, 75], "uv_size": [1, 1]},
								"west": {"uv": [39, 13], "uv_size": [20, 1]},
								"up": {"uv": [39, 35], "uv_size": [1, 20]},
								"down": {"uv": [24, 60], "uv_size": [1, -20]}
							}
						},
						{
							"origin": [3.6, 29.80391, -8.43405],
							"size": [1.2, 1.2, 27.6],
							"pivot": [-4.2, 23.80391, -3.63405],
							"rotation": [0, 0, 0],
							"uv": {
								"north": {"uv": [19, 75], "uv_size": [1, 1]},
								"east": {"uv": [33, 34], "uv_size": [23, 1]},
								"south": {"uv": [20, 75], "uv_size": [1, 1]},
								"west": {"uv": [35, 0], "uv_size": [23, 1]},
								"up": {"uv": [20, 34], "uv_size": [1, 23]},
								"down": {"uv": [21, 57], "uv_size": [1, -23]}
							}
						},
						{
							"origin": [-18.9, 30.48, -6.9],
							"size": [14.1, 0, 20.4],
							"uv": {
								"north": {"uv": [0, 0], "uv_size": [12, 0]},
								"east": {"uv": [0, 0], "uv_size": [17, 0]},
								"south": {"uv": [0, 0], "uv_size": [12, 0]},
								"west": {"uv": [0, 0], "uv_size": [17, 0]},
								"up": {"uv": [0, 0], "uv_size": [12, 17]},
								"down": {"uv": [12, 17], "uv_size": [12, -17]}
							}
						},
						{
							"origin": [4.8, 30.48, -6.9],
							"size": [14.1, 0, 20.4],
							"uv": {
								"north": {"uv": [0, 0], "uv_size": [12, 0]},
								"east": {"uv": [0, 0], "uv_size": [17, 0]},
								"south": {"uv": [0, 0], "uv_size": [12, 0]},
								"west": {"uv": [0, 0], "uv_size": [17, 0]},
								"up": {"uv": [0, 17], "uv_size": [12, 17]},
								"down": {"uv": [12, 34], "uv_size": [12, -17]}
							}
						}
					]
				},
				{
					"name": "propeller",
					"parent": "kart",
					"pivot": [-0.05988, 5.12921, 13.67688],
					"cubes": [
						{
							"origin": [-0.6, 4.5, 7.2],
							"size": [1.2, 1.2, 7.5],
							"uv": {
								"north": {"uv": [34, 75], "uv_size": [1, 1]},
								"east": {"uv": [55, 70], "uv_size": [6.5, 1]},
								"south": {"uv": [75, 39], "uv_size": [1, 1]},
								"west": {"uv": [70, 55], "uv_size": [6.5, 1]},
								"up": {"uv": [62, 70], "uv_size": [1, 6.5]},
								"down": {"uv": [63, 76.5], "uv_size": [1, -6.5]}
							}
						}
					]
				},
				{
					"name": "bone",
					"parent": "propeller",
					"pivot": [-0.05988, 5.12921, 13.67688],
					"cubes": [
						{
							"origin": [-2.40698, 5.38105, 14.10253],
							"size": [2.4, 6, 0],
							"pivot": [-0.08985, 5.06001, 14.0839],
							"rotation": [1.40629, 2.39736, -12.1589],
							"uv": {
								"north": {"uv": [45, 60], "uv_size": [2, 5]},
								"east": {"uv": [0, 0], "uv_size": [0, 5]},
								"south": {"uv": [60, 46], "uv_size": [2, 5]},
								"west": {"uv": [0, 0], "uv_size": [0, 5]},
								"up": {"uv": [0, 0], "uv_size": [2, 0]},
								"down": {"uv": [0, 0], "uv_size": [2, 0]}
							}
						},
						{
							"origin": [-2.56021, 5.36064, 14.1],
							"size": [2.4, 6, 0],
							"pivot": [-0.08985, 5.06001, 14.0839],
							"rotation": [0, 0, -127.29056],
							"uv": {
								"north": {"uv": [47, 60], "uv_size": [2, 5]},
								"east": {"uv": [0, 0], "uv_size": [0, 5]},
								"south": {"uv": [49, 60], "uv_size": [2, 5]},
								"west": {"uv": [0, 0], "uv_size": [0, 5]},
								"up": {"uv": [0, 0], "uv_size": [2, 0]},
								"down": {"uv": [0, 0], "uv_size": [2, 0]}
							}
						},
						{
							"origin": [-2.49861, 5.51164, 14.1],
							"size": [2.4, 6, 0],
							"pivot": [-0.08985, 5.06001, 14.0839],
							"rotation": [0, 0, 108.01193],
							"uv": {
								"north": {"uv": [51, 60], "uv_size": [2, 5]},
								"east": {"uv": [0, 0], "uv_size": [0, 5]},
								"south": {"uv": [60, 51], "uv_size": [2, 5]},
								"west": {"uv": [0, 0], "uv_size": [0, 5]},
								"up": {"uv": [0, 0], "uv_size": [2, 0]},
								"down": {"uv": [0, 0], "uv_size": [2, 0]}
							}
						}
					]
				},
				{
					"name": "drifts",
					"pivot": [0, 0, 0]
				},
				{
					"name": "drift_left",
					"parent": "drifts",
					"pivot": [2.25, 0, -22]
				},
				{
					"name": "drift_b_l",
					"parent": "drift_left",
					"pivot": [15.78558, 3, -12.71791],
					"rotation": [0, 102.5, 0]
				},
				{
					"name": "b_1",
					"parent": "drift_b_l",
					"pivot": [-1.92689, 1, -21.12237],
					"cubes": [
						{
							"origin": [-0.60718, 0, -30.17168],
							"size": [8, 8, 0],
							"pivot": [15.78558, 3, -12.71791],
							"rotation": [0, 40, 0],
							"uv": {
								"north": {"uv": [247.975, 208.475], "uv_size": [8, 8]},
								"east": {"uv": [256, 0], "uv_size": [0, 6]},
								"south": {"uv": [248, 0], "uv_size": [8, 6]},
								"west": {"uv": [256, 0], "uv_size": [0, 6]},
								"up": {"uv": [256, 6], "uv_size": [-8, -6]},
								"down": {"uv": [256, 0], "uv_size": [-8, 0]}
							}
						}
					]
				},
				{
					"name": "b_2",
					"parent": "drift_b_l",
					"pivot": [-1.92689, 1, -21.12237],
					"cubes": [
						{
							"origin": [-0.60718, 0, -30.17168],
							"size": [8, 8, 0],
							"pivot": [15.78558, 3, -12.71791],
							"rotation": [0, 40, 0],
							"uv": {
								"north": {"uv": [247.975, 216.975], "uv_size": [8, 8]},
								"east": {"uv": [256, 0], "uv_size": [0, 6]},
								"south": {"uv": [248, 0], "uv_size": [8, 6]},
								"west": {"uv": [256, 0], "uv_size": [0, 6]},
								"up": {"uv": [256, 6], "uv_size": [-8, -6]},
								"down": {"uv": [256, 0], "uv_size": [-8, 0]}
							}
						}
					]
				},
				{
					"name": "drift_o_l",
					"parent": "drift_left",
					"pivot": [11.78558, 3, 7.28209],
					"rotation": [0, 102.5, 0]
				},
				{
					"name": "o_1",
					"parent": "drift_o_l",
					"pivot": [11.73327, 1, 8.11161],
					"cubes": [
						{
							"origin": [14.05299, 0, -1.93771],
							"size": [8, 8, 0],
							"pivot": [30.44574, 3, 15.51607],
							"rotation": [0, 40, 0],
							"uv": {
								"north": {"uv": [247.975, 223.975], "uv_size": [8, 8]},
								"east": {"uv": [256, 0], "uv_size": [0, 6]},
								"south": {"uv": [248, 0], "uv_size": [8, 6]},
								"west": {"uv": [256, 0], "uv_size": [0, 6]},
								"up": {"uv": [256, 6], "uv_size": [-8, -6]},
								"down": {"uv": [256, 0], "uv_size": [-8, 0]}
							}
						}
					]
				},
				{
					"name": "o_2",
					"parent": "drift_o_l",
					"pivot": [11.73327, 1, 8.11161],
					"cubes": [
						{
							"origin": [14.05299, 0, -1.93771],
							"size": [8, 8, 0],
							"pivot": [30.44574, 3, 15.51607],
							"rotation": [0, 40, 0],
							"uv": {
								"north": {"uv": [247.975, 231.975], "uv_size": [8, 8]},
								"east": {"uv": [256, 0], "uv_size": [0, 6]},
								"south": {"uv": [248, 0], "uv_size": [8, 6]},
								"west": {"uv": [256, 0], "uv_size": [0, 6]},
								"up": {"uv": [256, 6], "uv_size": [-8, -6]},
								"down": {"uv": [256, 0], "uv_size": [-8, 0]}
							}
						}
					]
				},
				{
					"name": "drift_v_l",
					"parent": "drift_left",
					"pivot": [15.78558, 3, -12.71791],
					"rotation": [0, 102.5, 0]
				},
				{
					"name": "v_1",
					"parent": "drift_v_l",
					"pivot": [-1.92689, 1, -20.12237],
					"cubes": [
						{
							"origin": [-0.60718, 0, -30.17168],
							"size": [8, 8, 0],
							"pivot": [15.78558, 3, -12.71791],
							"rotation": [0, 40, 0],
							"uv": {
								"north": {"uv": [247.975, 239.975], "uv_size": [8, 8]},
								"east": {"uv": [256, 0], "uv_size": [0, 6]},
								"south": {"uv": [248, 0], "uv_size": [8, 6]},
								"west": {"uv": [256, 0], "uv_size": [0, 6]},
								"up": {"uv": [256, 6], "uv_size": [-8, -6]},
								"down": {"uv": [256, 0], "uv_size": [-8, 0]}
							}
						}
					]
				},
				{
					"name": "v_2",
					"parent": "drift_v_l",
					"pivot": [-1.9269, 1, -20.1224],
					"cubes": [
						{
							"origin": [-0.60718, 0, -30.17168],
							"size": [8, 8, 0],
							"pivot": [15.78558, 3, -12.71791],
							"rotation": [0, 40, 0],
							"uv": {
								"north": {"uv": [247.975, 247.975], "uv_size": [8, 8]},
								"east": {"uv": [256, 0], "uv_size": [0, 6]},
								"south": {"uv": [248, 0], "uv_size": [8, 6]},
								"west": {"uv": [256, 0], "uv_size": [0, 6]},
								"up": {"uv": [256, 6], "uv_size": [-8, -6]},
								"down": {"uv": [256, 0], "uv_size": [-8, 0]}
							}
						}
					]
				},
				{
					"name": "drift_right",
					"parent": "drifts",
					"pivot": [-1.75, 0, -21]
				},
				{
					"name": "drift_b_l2",
					"parent": "drift_right",
					"pivot": [-15.28558, 3, -11.71791],
					"rotation": [0, -102.5, 0]
				},
				{
					"name": "b_3",
					"parent": "drift_b_l2",
					"pivot": [2.42689, 1, -20.12237],
					"cubes": [
						{
							"origin": [-6.89282, 0, -29.17168],
							"size": [8, 8, 0],
							"pivot": [-15.28558, 3, -11.71791],
							"rotation": [0, -40, 0],
							"uv": {
								"north": {"uv": [256, 208.5], "uv_size": [-8, 8]},
								"east": {"uv": [256, 0], "uv_size": [0, 6]},
								"south": {"uv": [256, 0], "uv_size": [-8, 6]},
								"west": {"uv": [256, 0], "uv_size": [0, 6]},
								"up": {"uv": [248, 6], "uv_size": [8, -6]},
								"down": {"uv": [248, 0], "uv_size": [8, 0]}
							}
						}
					]
				},
				{
					"name": "b_4",
					"parent": "drift_b_l2",
					"pivot": [2.42689, 1, -20.12237],
					"cubes": [
						{
							"origin": [-6.89282, 0, -29.17168],
							"size": [8, 8, 0],
							"pivot": [-15.28558, 3, -11.71791],
							"rotation": [0, -40, 0],
							"uv": {
								"north": {"uv": [256, 217], "uv_size": [-8, 8]},
								"east": {"uv": [256, 0], "uv_size": [0, 6]},
								"south": {"uv": [256, 0], "uv_size": [-8, 6]},
								"west": {"uv": [256, 0], "uv_size": [0, 6]},
								"up": {"uv": [248, 6], "uv_size": [8, -6]},
								"down": {"uv": [248, 0], "uv_size": [8, 0]}
							}
						}
					]
				},
				{
					"name": "drift_o_l2",
					"parent": "drift_right",
					"pivot": [-15.28558, 3, -11.71791],
					"rotation": [0, -102.5, 0]
				},
				{
					"name": "o_3",
					"parent": "drift_o_l2",
					"pivot": [1.825, 1, -20.12237],
					"cubes": [
						{
							"origin": [-6.89282, 0, -29.17168],
							"size": [8, 8, 0],
							"pivot": [-15.28558, 3, -11.71791],
							"rotation": [0, -40, 0],
							"uv": {
								"north": {"uv": [256, 224], "uv_size": [-8, 8]},
								"east": {"uv": [256, 0], "uv_size": [0, 6]},
								"south": {"uv": [256, 0], "uv_size": [-8, 6]},
								"west": {"uv": [256, 0], "uv_size": [0, 6]},
								"up": {"uv": [248, 6], "uv_size": [8, -6]},
								"down": {"uv": [248, 0], "uv_size": [8, 0]}
							}
						}
					]
				},
				{
					"name": "o_4",
					"parent": "drift_o_l2",
					"pivot": [1.825, 1, -20.12237],
					"cubes": [
						{
							"origin": [-6.89282, 0, -29.17168],
							"size": [8, 8, 0],
							"pivot": [-15.28558, 3, -11.71791],
							"rotation": [0, -40, 0],
							"uv": {
								"north": {"uv": [256, 232], "uv_size": [-8, 8]},
								"east": {"uv": [256, 0], "uv_size": [0, 6]},
								"south": {"uv": [256, 0], "uv_size": [-8, 6]},
								"west": {"uv": [256, 0], "uv_size": [0, 6]},
								"up": {"uv": [248, 6], "uv_size": [8, -6]},
								"down": {"uv": [248, 0], "uv_size": [8, 0]}
							}
						}
					]
				},
				{
					"name": "drift_v_l2",
					"parent": "drift_right",
					"pivot": [-15.28558, 3, -11.71791],
					"rotation": [0, -102.5, 0]
				},
				{
					"name": "v_3",
					"parent": "drift_v_l2",
					"pivot": [2.82498, 1, -19.61838],
					"cubes": [
						{
							"origin": [-6.89282, 0, -29.17168],
							"size": [8, 8, 0],
							"pivot": [-15.28558, 3, -11.71791],
							"rotation": [0, -40, 0],
							"uv": {
								"north": {"uv": [256, 240], "uv_size": [-8, 8]},
								"east": {"uv": [256, 0], "uv_size": [0, 6]},
								"south": {"uv": [256, 0], "uv_size": [-8, 6]},
								"west": {"uv": [256, 0], "uv_size": [0, 6]},
								"up": {"uv": [248, 6], "uv_size": [8, -6]},
								"down": {"uv": [248, 0], "uv_size": [8, 0]}
							}
						}
					]
				},
				{
					"name": "v_4",
					"parent": "drift_v_l2",
					"pivot": [2.825, 1, -19.6184],
					"cubes": [
						{
							"origin": [-6.89282, 0, -29.17168],
							"size": [8, 8, 0],
							"pivot": [-15.28558, 3, -11.71791],
							"rotation": [0, -40, 0],
							"uv": {
								"north": {"uv": [256, 248], "uv_size": [-8, 8]},
								"east": {"uv": [256, 0], "uv_size": [0, 6]},
								"south": {"uv": [256, 0], "uv_size": [-8, 6]},
								"west": {"uv": [256, 0], "uv_size": [0, 6]},
								"up": {"uv": [248, 6], "uv_size": [8, -6]},
								"down": {"uv": [248, 0], "uv_size": [8, 0]}
							}
						}
					]
				}
			]
		}
	]
}