{
	"format_version": "1.8.0",
	"animations": {
		"propeller_on": {
			"loop": "hold_on_last_frame",
			"animation_length": 0.29167,
			"bones": {
				"propeller": {
					"rotation": {
						"0.0": {
							"vector": [0, 0, 0]
						},
						"0.125": {
							"vector": [-72.5, 0, 0]
						},
						"0.25": {
							"vector": [0, 0, 0]
						},
						"0.2917": {
							"vector": [0, 0, 0]
						}
					},
					"position": {
						"0.0": {
							"vector": [0, 0, -9]
						},
						"0.2917": {
							"vector": [0, 0, 0]
						}
					},
					"scale": {
						"0.0": {
							"vector": [0, 0, 0]
						},
						"0.2917": {
							"vector": [1, 1, 1]
						}
					}
				}
			}
		},
		"propeller_off": {
			"loop": "hold_on_last_frame",
			"animation_length": 0.29167,
			"bones": {
				"propeller": {
					"rotation": {
						"0.0": {
							"vector": [0, 0, 0]
						},
						"0.0417": {
							"vector": [0, 0, 0],
							"easing": "linear"
						},
						"0.1667": {
							"vector": [-72.5, 0, 0],
							"easing": "linear"
						},
						"0.2917": {
							"vector": [0, 0, 0],
							"easing": "linear"
						}
					},
					"position": {
						"0.0": {
							"vector": [0, 0, 0]
						},
						"0.2917": {
							"vector": [0, 0, -9]
						}
					},
					"scale": {
						"0.0": {
							"vector": [1, 1, 1]
						},
						"0.2917": {
							"vector": [0, 0, 0]
						}
					}
				}
			}
		},
		"glider_on": {
			"animation_length": 0.33333,
			"bones": {
				"delta": {
					"rotation": {
						"0.1667": {
							"vector": [0, 0, 0]
						},
						"0.3333": {
							"vector": [0, 0, 0]
						}
					},
					"position": {
						"0.0": {
							"vector": [0, -15, -15]
						},
						"0.1667": {
							"vector": [0, -4, -7]
						},
						"0.25": {
							"vector": [0, 3, -1.5]
						},
						"0.3333": {
							"vector": [0, 0, 0]
						}
					},
					"scale": {
						"0.0": {
							"vector": [0, 0, 0]
						},
						"0.0833": {
							"vector": [0.25, 0.5, 0.2]
						},
						"0.1667": {
							"vector": [0.5, 1, 1]
						},
						"0.25": {
							"vector": [1.55, 1, 1]
						},
						"0.3333": {
							"vector": [1, 1, 1]
						}
					}
				}
			}
		},
		"glider_off": {
			"animation_length": 0.29167,
			"bones": {
				"delta": {
					"rotation": {
						"0.0": {
							"vector": [0, 0, 0]
						},
						"0.1667": {
							"vector": [0, 0, 0]
						}
					},
					"position": {
						"0.0": {
							"vector": [0, 0, 0]
						},
						"0.0833": {
							"vector": [0, 3, -1.5]
						},
						"0.1667": {
							"vector": [0, -4, -7]
						},
						"0.2917": {
							"vector": [0, -15, -15]
						}
					},
					"scale": {
						"0.0": {
							"vector": [1, 1, 1]
						},
						"0.0833": {
							"vector": [1.55, 1, 1]
						},
						"0.1667": {
							"vector": [0.5, 1, 1]
						},
						"0.2083": {
							"vector": [0.25, 0.5, 0.2]
						},
						"0.2917": {
							"vector": [0, 0, 0]
						}
					}
				}
			}
		},
		"engine": {
			"loop": true,
			"animation_length": 0.33333
		},
		"drift_b": {
			"loop": true,
			"animation_length": 0.24,
			"bones": {
				"b_1": {
					"scale": {
						"0.0": {
							"vector": [1.5, 1.5, 1.5]
						},
						"0.12": {
							"vector": [0, 0, 0]
						},
						"0.24": {
							"vector": [1.5, 1.5, 1.5]
						}
					}
				},
				"b_2": {
					"scale": {
						"0.0": {
							"vector": [0, 0, 0]
						},
						"0.12": {
							"vector": [1.5, 1.5, 1.5]
						},
						"0.24": {
							"vector": [0, 0, 0]
						}
					}
				},
				"drift_o_l": {
					"scale": {
						"vector": [0, 0, 0]
					}
				},
				"drift_v_l": {
					"scale": {
						"vector": [0, 0, 0]
					}
				},
				"b_3": {
					"scale": {
						"0.0": {
							"vector": [1.5, 1.5, 1.5]
						},
						"0.12": {
							"vector": [0, 0, 0]
						},
						"0.24": {
							"vector": [1.5, 1.5, 1.5]
						}
					}
				},
				"b_4": {
					"scale": {
						"0.0": {
							"vector": [0, 0, 0]
						},
						"0.12": {
							"vector": [1.5, 1.5, 1.5]
						},
						"0.24": {
							"vector": [0, 0, 0]
						}
					}
				},
				"drift_o_l2": {
					"scale": {
						"vector": [0, 0, 0]
					}
				},
				"drift_v_l2": {
					"scale": {
						"vector": [0, 0, 0]
					}
				}
			}
		},
		"drift_o": {
			"loop": true,
			"animation_length": 0.24,
			"bones": {
				"drift_b_l": {
					"scale": {
						"vector": [0, 0, 0]
					}
				},
				"o_1": {
					"scale": {
						"0.0": {
							"vector": [0, 0, 0]
						},
						"0.12": {
							"vector": [1.75, 1.75, 1.75]
						},
						"0.24": {
							"vector": [0, 0, 0]
						}
					}
				},
				"o_2": {
					"scale": {
						"0.0": {
							"vector": [1.75, 1.75, 1.75]
						},
						"0.12": {
							"vector": [0, 0, 0]
						},
						"0.24": {
							"vector": [1.75, 1.75, 1.75]
						}
					}
				},
				"drift_v_l": {
					"scale": {
						"vector": [0, 0, 0]
					}
				},
				"drift_b_l2": {
					"scale": {
						"vector": [0, 0, 0]
					}
				},
				"o_3": {
					"scale": {
						"0.0": {
							"vector": [0, 0, 0]
						},
						"0.12": {
							"vector": [1.75, 1.75, 1.75]
						},
						"0.24": {
							"vector": [0, 0, 0]
						}
					}
				},
				"o_4": {
					"scale": {
						"0.0": {
							"vector": [1.75, 1.75, 1.75]
						},
						"0.12": {
							"vector": [0, 0, 0]
						},
						"0.24": {
							"vector": [1.75, 1.75, 1.75]
						}
					}
				},
				"drift_v_l2": {
					"scale": {
						"vector": [0, 0, 0]
					}
				}
			}
		},
		"drift_v": {
			"loop": true,
			"animation_length": 0.24,
			"bones": {
				"drift_b_l": {
					"scale": {
						"vector": [0, 0, 0]
					}
				},
				"drift_o_l": {
					"scale": {
						"vector": [0, 0, 0]
					}
				},
				"v_1": {
					"scale": {
						"0.0": {
							"vector": [0, 0, 0]
						},
						"0.12": {
							"vector": [2, 2, 2]
						},
						"0.24": {
							"vector": [0, 0, 0]
						}
					}
				},
				"v_2": {
					"scale": {
						"0.0": {
							"vector": [2, 2, 2]
						},
						"0.12": {
							"vector": [0, 0, 0]
						},
						"0.24": {
							"vector": [2, 2, 2]
						}
					}
				},
				"drift_b_l2": {
					"scale": {
						"vector": [0, 0, 0]
					}
				},
				"drift_o_l2": {
					"scale": {
						"vector": [0, 0, 0]
					}
				},
				"v_3": {
					"scale": {
						"0.0": {
							"vector": [0, 0, 0]
						},
						"0.12": {
							"vector": [2, 2, 2]
						},
						"0.24": {
							"vector": [0, 0, 0]
						}
					}
				},
				"v_4": {
					"scale": {
						"0.0": {
							"vector": [2, 2, 2]
						},
						"0.12": {
							"vector": [0, 0, 0]
						},
						"0.24": {
							"vector": [2, 2, 2]
						}
					}
				}
			}
		},
		"drift_off": {
			"loop": "hold_on_last_frame",
			"animation_length": 0.33333,
			"bones": {
				"drift_b_r": {
					"scale": {
						"vector": [0, 0, 0]
					}
				},
				"drift_b_l": {
					"scale": {
						"vector": [0, 0, 0]
					}
				},
				"drift_o_r": {
					"scale": {
						"vector": [0, 0, 0]
					}
				},
				"drift_o_l": {
					"scale": {
						"vector": [0, 0, 0]
					}
				},
				"v_1": {
					"scale": {
						"0.0": {
							"vector": [1, 1, 1]
						},
						"0.0417": {
							"vector": [0, 0, 0]
						},
						"0.1667": {
							"vector": [0, 0, 0]
						},
						"0.2083": {
							"vector": [1, 1, 1]
						},
						"0.3333": {
							"vector": [1, 1, 1]
						}
					}
				},
				"v_2": {
					"scale": {
						"0.0": {
							"vector": [0, 0, 0]
						},
						"0.0417": {
							"vector": [1, 1, 1]
						},
						"0.1667": {
							"vector": [1, 1, 1]
						},
						"0.2083": {
							"vector": [0, 0, 0]
						},
						"0.3333": {
							"vector": [0, 0, 0]
						}
					}
				},
				"v_3": {
					"scale": {
						"0.0": {
							"vector": [1, 1, 1]
						},
						"0.0417": {
							"vector": [0, 0, 0]
						},
						"0.1667": {
							"vector": [0, 0, 0]
						},
						"0.2083": {
							"vector": [1, 1, 1]
						},
						"0.3333": {
							"vector": [1, 1, 1]
						}
					}
				},
				"v_4": {
					"scale": {
						"0.0": {
							"vector": [0, 0, 0]
						},
						"0.0417": {
							"vector": [1, 1, 1]
						},
						"0.1667": {
							"vector": [1, 1, 1]
						},
						"0.2083": {
							"vector": [0, 0, 0]
						},
						"0.3333": {
							"vector": [0, 0, 0]
						}
					}
				},
				"drift_v_l": {
					"scale": {
						"vector": [0, 0, 0]
					}
				},
				"drift_v_r": {
					"scale": {
						"vector": [0, 0, 0]
					}
				},
				"drifts": {
					"scale": {
						"vector": [0, 0, 0]
					}
				}
			}
		}
	},
	"geckolib_format_version": 2
}